Name,Age,Sex,Division,BodyweightKg,WeightClassKg,Squat1Kg,Squat2Kg,Squat3Kg,Best3SquatKg,Squat4Kg,Bench1Kg,Bench2Kg,Bench3Kg,Best3BenchKg,Bench4Kg,Deadlift1Kg,Deadlift2Kg,Deadlift3Kg,Best3DeadliftKg,Deadlift4Kg,TotalKg,Country,Event,Equipment,Tested,Place
Lamorna Bardwell,23,F,F_JCR_AWPC,51.2,52,95,100,105,105,,60,62.5,-67.5,62.5,,130,140,-150,140,,307.5,UK,SBD,Wraps,Yes,1
Sophie Fuller,23,F,F_JCR_AWPC,64.15,67.5,105,-110,112.5,112.5,,60,62.5,-63.5,62.5,,137.5,-142.5,-142.5,137.5,,312.5,UK,SBD,Wraps,Yes,1
Amy White,20,F,F_JR_AWPC,59.55,60,107.5,115,-120,115,,55,60,-62.5,60,,110,117.5,125,125,,300,Ireland,SBD,Raw,Yes,1
Catherine Kruger,23,F,F_JR_AWPC,66.6,67.5,,,,,,,,,,,110,120,122.5,122.5,,122.5,Ireland,D,Raw,Yes,1
Shannon Clarke,21,F,F_JR_AWPC,66.85,67.5,77.5,82.5,-87.5,82.5,,47.5,-52.5,-52.5,47.5,,105,-110,-110,105,,235,UK,SBD,Raw,Yes,2
Vera Klauke,22,F,F_JR_AWPC,67.4,67.5,97.5,-102.5,-102.5,97.5,,57.5,60,-62.5,60,,127.5,135,140,140,,297.5,Ireland,SBD,Raw,Yes,1
Jenny Davies,23,F,F_JR_AWPC,73.45,75,102.5,107.5,112.5,112.5,,52.5,57.5,60,60,,112.5,120,122.5,122.5,,295,UK,SBD,Raw,Yes,2
Aline Aronsky,23,F,F_JR_AWPC,73.45,75,-115,125,-133,125,,55,57.5,-60,57.5,,140,150,155,155,160,337.5,UK,SBD,Raw,Yes,1
Francesca Dennis,23,F,F_JR_WPC,74.8,75,,,,,,70,-75,-77.5,70,,,,,,,70,UK,B,Raw,,1
Francesca Dennis,23,F,F_JR_WPC,74.8,75,,,,,,,,,,,140,150,155,155,,155,UK,D,Raw,,1
Isabel Sanz Agueda,20,F,F_JR_WPC,73.85,75,150,160,-165,160,,60,65,-67.5,65,,180,190,200,200,,425,Spain,SBD,Raw,,1
Anna Marie O'Donoghue,43,F,F_MCR_1_AWPC,64.6,67.5,110,-115,-117.5,110,,55,57.5,-60,57.5,,125,-130,-130,125,,292.5,Ireland,SBD,Wraps,Yes,2
Jennifer Boyne,41,F,F_MCR_1_AWPC,65.5,67.5,107.5,115,121,121,,50,55,-57.5,55,,-130,130,137.5,137.5,,313.5,Ireland,SBD,Wraps,Yes,1
Diane Duignan,41,F,F_MCR_1_AWPC,73.4,75,77.5,85,92.5,92.5,,42.5,45,,45,,117.5,-122.5,122.5,122.5,,260,Ireland,SBD,Wraps,Yes,2
Olivia Wright,43,F,F_MCR_1_AWPC,71.65,75,110,120,130.5,130.5,,50,55,60,60,,125,135,-145,135,,325.5,UK,SBD,Wraps,Yes,1
Saundra Ryan,44,F,F_MCR_1_AWPC,89.45,90,120,130,136,136,140,50,52.5,-55,52.5,,120,127.5,132.5,132.5,,321,Ireland,SBD,Wraps,Yes,1
Katherine Fitzgerald,40,F,F_MCR_1_AWPC,115.15,90+,-80,85,87.5,87.5,,55,60,65,65,,100,110,120,120,,272.5,Ireland,SBD,Wraps,Yes,2
Melanie Clifford,40,F,F_MCR_1_AWPC,115.9,90+,120,140,-150,140,,55,62.5,-67.5,62.5,,135,150,155,155,,357.5,UK,SBD,Wraps,Yes,1
Siobhan Hynes #1,41,F,F_MCR_1_WPC,59.6,60,-145,150,,150,,70,-75,-75,70,,125,135,140,140,,360,Ireland,SBD,Wraps,,1
Tess O'Flaherty,52,F,F_MCR_3_AWPC,55.3,56,90,95,-101,95,,55,60,-62.5,60,,105,110,115,115,,270,UK,SBD,Wraps,Yes,2
Mo Proctor,52,F,F_MCR_3_AWPC,87.65,90,105,115,120,120,,70,-75,75,75,,135,142.5,147.5,147.5,,342.5,UK,SBD,Wraps,Yes,1
Nicola Vaughan-Ellis,56,F,F_MCR_4_AWPC,106,90+,80,-85,85,85,,40,45,-50,45,,95,105,115,115,,245,UK,SBD,Wraps,Yes,1
Lolita Zankl,60,F,F_MCR_5_WPC,65.65,67.5,90,105,115,115,,100,110,115,115,120,160,170,180,180,,410,Germany,SBD,Wraps,,1
Karin Heindl,62,F,F_MEM_5_WPC,56.9,60,,,,,,,,,,,75,,,75,,75,Austria,D,Multi-ply,,1
Emma Ylitalo-James,49,F,F_MES_2_WPC,88.6,90,,,,,,210,-217.5,-222.5,210,,,,,,,210,UK,B,Single-ply,,1
Allison Hough,53,F,F_MES_3_AWPC,58.2,60,130,142.5,152.5,152.5,,82.5,85,-90,85,,130,142.5,-153,142.5,,380,UK,SBD,Single-ply,Yes,1
Lucinda Bampton,41,F,F_MR_1_AWPC,55.8,56,70,75,-80,75,,52.5,-55,-55,52.5,,115,125,-130,125,,252.5,UK,SBD,Raw,Yes,1
Kirsty Holmes,41,F,F_MR_1_AWPC,58.6,60,70,75,80,80,,45,47.5,-50,47.5,,115,125,130,130,135,257.5,UK,SBD,Raw,Yes,1
Sylwia Majszyk,41,F,F_MR_1_AWPC,68.65,75,,,,,,90,92.5,-95,92.5,,,,,,,92.5,Ireland,B,Raw,Yes,1
Sylwia Majszyk,41,F,F_MR_1_AWPC,68.65,75,,,,,,,,,,,135,140,145,145,,145,Ireland,D,Raw,Yes,1
Marion Kearns,44,F,F_MR_1_AWPC,74.15,75,100,105,112.5,112.5,,55,57.5,-62.5,57.5,,125,130,-135,130,,300,Ireland,SBD,Raw,Yes,1
Sal Lack,42,F,F_MR_1_AWPC,89.7,90,,,,,,,,,,,112.5,122.5,130,130,,130,UK,D,Raw,Yes,1
Linda Murphy,44,F,F_MR_1_AWPC,115,90+,,,,,,62.5,65,67.5,67.5,,,,,,,67.5,Ireland,B,Raw,Yes,1
Katherine Fitzgerald,40,F,F_MR_1_AWPC,115.85,90+,,,,,,-60,,,,,,,,,,,Ireland,B,Raw,Yes,DQ
Katherine Fitzgerald,40,F,F_MR_1_AWPC,115.85,90+,,,,,,,,,,,115,,,115,,115,Ireland,D,Raw,Yes,1
Nicola Crawley,40,F,F_MR_1_AWPC,139.9,90+,125,132.5,142.5,142.5,,70,72.5,75,75,,150,162.5,-173,162.5,,380,Ireland,SBD,Raw,Yes,1
Paulina Coleman,41,F,F_MR_1_WPC,79.05,82.5,,,,,,80,85,-87.5,85,,,,,,,85,Ireland,B,Raw,,1
Paulina Coleman,41,F,F_MR_1_WPC,79.05,82.5,,,,,,,,,,,180,-190,,180,,180,Ireland,D,Raw,,1
Paulina Coleman,41,F,F_MR_1_WPC,78.65,82.5,140,145,-150,145,,75,80,-85,80,,180,192.5,-200,192.5,,417.5,Ireland,SBD,Raw,,1
Kim Duggan,47,F,F_MR_2_AWPC,55,56,85,90,95.5,95.5,,-55,57.5,-60,57.5,,125,130,135,135,-137.5,288,Ireland,SBD,Raw,Yes,1
Sarah Brown #2,46,F,F_MR_2_AWPC,90,90,70,-80,80,80,,45,-50,-50,45,,125,135,142.5,142.5,-150,267.5,UK,SBD,Raw,Yes,1
Jacinta Smith,45,F,F_MR_2_AWPC,116,90+,,,,,,75,-77.5,-80,75,,,,,,,75,Ireland,B,Raw,Yes,2
Sarah Grieve,45,F,F_MR_2_AWPC,109.9,90+,,,,,,75,-81,81,81,,,,,,,81,Ireland,B,Raw,Yes,1
Jacinta Smith,45,F,F_MR_2_AWPC,116,90+,,,,,,,,,,,145,150,157.5,157.5,,157.5,Ireland,D,Raw,Yes,1
Jacinta Smith,45,F,F_MR_2_AWPC,116,90+,-120,125,130,130,,75,-80,-80,75,,130,140,-155,140,,345,Ireland,SBD,Raw,Yes,1
Cristina Catalfamo,48,F,F_MR_2_WPC,50.95,52,80,85,90,90,95.5,40,45,-47.5,45,,95,100,105,105,,240,Italy,SBD,Raw,,1
Sue Chatton,50,F,F_MR_3_AWPC,47.65,48,70,-75,-75,70,,47.5,50,-51,50,,105,107.5,110,110,112.5,230,UK,SBD,Raw,Yes,1
Maria Maher,54,F,F_MR_3_AWPC,67.2,67.5,,,,,,67.5,-70,-70,67.5,,,,,,,67.5,Ireland,B,Raw,Yes,1
Virpi Knuutila,52,F,F_MR_3_WPC,82,82.5,,,,,,122.5,132.5,140,140,,,,,,,140,Finland,B,Raw,,1
Virpi Knuutila,52,F,F_MR_3_WPC,82,82.5,,,,,,,,,,,205,220,-235,220,,220,Finland,D,Raw,,1
Linda Hicks,57,F,F_MR_4_AWPC,71.5,75,,,,,,65,70,-75,70,,,,,,,70,UK,B,Raw,Yes,1
Patricia Wetton,56,F,F_MR_4_AWPC,74.9,75,102.5,-107.5,107.5,107.5,,60,62.5,65,65,,130,135,,135,,307.5,UK,SBD,Raw,Yes,1
Karin Heindl,62,F,F_MR_5_WPC,56.9,60,,,,,,38.5,42.5,45,45,,,,,,,45,Austria,B,Raw,,1
Lolita Zankl,60,F,F_MR_5_WPC,65.5,67.5,,,,,,100,110,115,115,,,,,,,115,Germany,B,Raw,,1
Lolita Zankl,60,F,F_MR_5_WPC,65.5,67.5,,,,,,,,,,,160,170,180,180,,180,Germany,D,Raw,,1
Victoria Court,31,F,F_OCR_AWPC,51.3,52,90,97.5,100,100,,75,-80,-80,75,,112.5,-120,120,120,,295,UK,SBD,Wraps,Yes,1
Tess O'Flaherty,52,F,F_OCR_AWPC,55.3,56,90,95,-101,95,,55,60,-62.5,60,,105,110,115,115,,270,UK,SBD,Wraps,Yes,1
Michelle Trench,33,F,F_OCR_AWPC,54.8,56,85,95,-100,95,,47.5,-52.5,52.5,52.5,,125,137.5,-140,137.5,,285,UK,SBD,Wraps,Yes,1
Lyndsay McGuire,34,F,F_OCR_AWPC,58.55,60,90,97.5,102.5,102.5,,47.5,52.5,55,55,,125,-135,-135,125,,282.5,UK,SBD,Wraps,Yes,1
Aoife Delahunt,37,F,F_OCR_AWPC,64.15,67.5,72.5,80,-85,80,,45,50,-52.5,50,,95,105,110,110,,240,Ireland,SBD,Wraps,Yes,4
Claire Cartlidge,35,F,F_OCR_AWPC,66.9,67.5,90,95,100,100,,55,-60,-60,55,,130,145,-150,145,,300,UK,SBD,Raw,Yes,3
Ciara Delahunt,30,F,F_OCR_AWPC,63.65,67.5,130,140,-145,140,,60,65,-67.5,65,,135,145,155,155,,360,Ireland,SBD,Wraps,Yes,2
Venessa Burnett,31,F,F_OCR_AWPC,66.1,67.5,-142.5,142.5,150,150,,70,75,-77.5,75,,155,160,-165,160,,385,Ireland,SBD,Wraps,Yes,1
Ashleigh Smedley,25,F,F_OCR_AWPC,72.1,75,110,-120,-125,110,,-50,50,-60,50,,120,130,135,135,,295,UK,SBD,Wraps,Yes,4
Kate Brady,30,F,F_OCR_AWPC,73.15,75,110,117.5,125,125,,57.5,-60,60,60,,120,127.5,-132.5,127.5,,312.5,Ireland,SBD,Wraps,Yes,3
Hannah Venn-Munns,32,F,F_OCR_AWPC,73.8,75,92.5,100,107.5,107.5,,62.5,67.5,-70,67.5,,125,135,140,140,,315,UK,SBD,Wraps,Yes,2
Donna Baxter-Phillips,30,F,F_OCR_AWPC,73.2,75,120,130,-140,130,,70,-75,-75,70,,145,157.5,-167.5,157.5,,357.5,UK,SBD,Wraps,Yes,1
Emma Ryall,36,F,F_OCR_AWPC,79,82.5,110,-117.5,117.5,117.5,,55,60,62.5,62.5,,130,140,145,145,,325,Ireland,SBD,Wraps,Yes,3
Stephanie Kyle,33,F,F_OCR_AWPC,82.2,82.5,-145,145,-155,145,,72.5,-77.5,-77.5,72.5,,140,152.5,160,160,,377.5,UK,SBD,Wraps,Yes,2
Aisling Judge,30,F,F_OCR_AWPC,77.1,82.5,150,160,-171,160,,70,72.5,75,75,,175,185,-187.5,185,,420,Ireland,SBD,Wraps,Yes,1
Fay Northcott,27,F,F_OCR_AWPC,86.65,90,150,160,-165,160,,70,-72.5,,70,,165,175,-182.5,175,,405,UK,SBD,Wraps,Yes,2
Iwona Karwowska,36,F,F_OCR_AWPC,85.5,90,162.5,170,180,180,185,77.5,-85,-85,77.5,,147.5,155,162.5,162.5,,420,UK,SBD,Wraps,Yes,1
Amy Larkin,35,F,F_OCR_AWPC,109.2,90+,125,130,135,135,,67.5,70,72.5,72.5,,125,130,135,135,,342.5,Ireland,SBD,Wraps,Yes,4
Louise Kershaw,25,F,F_OCR_AWPC,94.45,90+,140,150,160,160,,60,65,-70,65,,132.5,142.5,152.5,152.5,,377.5,Ireland,SBD,Wraps,Yes,3
Katherine Rogers,39,F,F_OCR_AWPC,92.4,90+,-160,160,170,170,,60,-67.5,67.5,67.5,,150,162.5,-172.5,162.5,,400,UK,SBD,Wraps,Yes,2
Jenni Crimmins,28,F,F_OCR_AWPC,139.5,90+,145,152.5,,152.5,,82.5,-87.5,-87.5,82.5,,160,170,-175,170,,405,UK,SBD,Wraps,Yes,1
Megan Haverty,24,F,F_OCR_WPC,47.25,48,55,65,75,75,,45,47.5,50,50,,65,75,-82.5,75,,200,Ireland,SBD,Wraps,,1
Bénédicte LePanse,41,F,F_OCR_WPC,49.95,52,110,120,130.5,130.5,,60,67.5,-70.5,67.5,,110,120,130,130,,328,France,SBD,Wraps,,1
Siobhan Hynes #1,41,F,F_OCR_WPC,59.6,60,-145,150,,150,,70,-75,-75,70,,125,135,140,140,,360,Ireland,SBD,Wraps,,2
Tara Mooney,33,F,F_OCR_WPC,58.25,60,125,135,-140,135,,65,70,-72.5,70,,140,147.5,155,155,,360,Ireland,SBD,Wraps,,1
Kara Shaw,31,F,F_OCR_WPC,66.7,67.5,95,-102.5,105,105,,55,60,-62.5,60,,135,-142.5,142.5,142.5,,307.5,UK,SBD,Wraps,,3
Zowie Trevena,37,F,F_OCR_WPC,66.35,67.5,125,-135,-135,125,,55,60,-65,60,,130,140,147.5,147.5,,332.5,UK,SBD,Wraps,,2
Grainne Fegan,26,F,F_OCR_WPC,67.3,67.5,155,165,175,175,,85,90,-95,90,,150,-162.5,-162.5,150,,415,Ireland,SBD,Wraps,,1
Naomi Harford,25,F,F_OCR_WPC,73.1,75,135,142.5,150,150,,67.5,70,-72.5,70,,132.5,140,145,145,,365,Ireland,SBD,Wraps,,1
Laura Mastroberti,35,F,F_OCR_WPC,82.05,82.5,190,200,-210,200,,100,110,115,115,115.5,205,215,225,225,230,540,Italy,SBD,Wraps,,1
Karin Heindl,62,F,F_OEM_WPC,56.9,60,,,,,,,,,,,75,,,75,,75,Austria,D,Multi-ply,,1
Marie Bourke,32,F,F_OEM_WPC,59.25,60,155,160,-165,160,,90,95,100,100,,150,157.5,162.5,162.5,,422.5,Ireland,SBD,Multi-ply,,1
Joanne Connolly,32,F,F_OEM_WPC,82.1,82.5,-260,-270,-270,,,,,,,,,,,,,,Ireland,SBD,Multi-ply,,DQ
Joanne Connolly,32,F,F_OEM_WPC,84.9,90,,,,,,160,170,-180,170,,,,,,,170,Ireland,B,Multi-ply,,1
Villy O'Malley,34,F,F_OES_AWPC,59.5,60,-150,150,-160,150,,62.5,65,-67.5,65,,150,160,-165,160,,375,Ireland,SBD,Single-ply,Yes,1
Ellen Tobin Hogan,25,F,F_OES_AWPC,66.45,67.5,,,,,,,,,,,120,130,-137.5,130,,130,Ireland,D,Single-ply,Yes,1
Gillian Millward,38,F,F_OES_AWPC,74.85,75,135,-142.5,-142.5,135,,-80,80,-85,80,,130,-135,-135,130,,345,UK,SBD,Single-ply,Yes,1
Gemma Wright,26,F,F_OES_AWPC,80.5,82.5,,,,,,100,-110,110,110,,,,,,,110,UK,B,Single-ply,Yes,1
Emma Ylitalo-James,49,F,F_OES_WPC,88.6,90,,,,,,210,-217.5,-222.5,210,,,,,,,210,UK,B,Single-ply,,1
Joanne Connolly,32,F,F_OES_WPC,84.9,90,,,,,,,,,,,185,200,202.5,202.5,,202.5,Ireland,D,Single-ply,,1
Bota Cork,38,F,F_OR_AWPC,50.85,52,90,95,,95,,47.5,50,,50,,135,140,-145.5,140,,285,UK,SBD,Raw,Yes,1
Victoria Court,31,F,F_OR_AWPC,53.25,56,,,,,,75,-77.5,-77.5,75,,,,,,,75,UK,B,Raw,Yes,1
Sandra Evans,34,F,F_OR_AWPC,57.65,60,,,,,,55,-57.5,-57.5,55,,,,,,,55,Ireland,B,Raw,Yes,1
Caroline Dolan,28,F,F_OR_AWPC,58.1,60,,,,,,-50,-55,-55,,,,,,,,,Ireland,B,Raw,Yes,DQ
Sandra Evans,34,F,F_OR_AWPC,57.65,60,,,,,,,,,,,125,127.5,-130,127.5,,127.5,Ireland,D,Raw,Yes,3
Villy O'Malley,34,F,F_OR_AWPC,59.5,60,,,,,,,,,,,135,,,135,,135,Ireland,D,Raw,Yes,2
Caroline Dolan,28,F,F_OR_AWPC,58.1,60,,,,,,,,,,,150,160,165,165,,165,Ireland,D,Raw,Yes,1
Vikki Thomas,39,F,F_OR_AWPC,59,60,90,95,-100,95,,42.5,45,-47.5,45,,105,110,117.5,117.5,,257.5,UK,SBD,Raw,Yes,3
Cheska Webb,31,F,F_OR_AWPC,58.85,60,70,80,-85,80,,-52.5,52.5,55,55,,130,135,-142.5,135,,270,UK,SBD,Raw,Yes,2
Sandra Evans,34,F,F_OR_AWPC,58.7,60,85,90,95,95,,-55,55,-57.5,55,,125,-135,-135,125,,275,Ireland,SBD,Raw,Yes,1
Edyta Piechowicz,33,F,F_OR_AWPC,63.55,67.5,,,,,,67.5,70,-72.5,70,,,,,,,70,Ireland,B,Raw,Yes,1
Edyta Piechowicz,32,F,F_OR_AWPC,63.55,67.5,,,,,,,,,,,155,162.5,-167.5,162.5,,162.5,Ireland,D,Raw,Yes,1
Poorna Bell,38,F,F_OR_AWPC,62.05,67.5,85,-90,90,90,,47.5,50,-52.5,50,,110,120,-130,120,,260,UK,SBD,Raw,Yes,3
Cliodhna McAteer,26,F,F_OR_AWPC,65.9,67.5,85,92.5,97.5,97.5,,62.5,67.5,-70,67.5,,120,-127.5,127.5,127.5,,292.5,Ireland,SBD,Raw,Yes,2
Edyta Piechowicz,33,F,F_OR_AWPC,64,67.5,105,112.5,-120,112.5,,67.5,-72.5,-72.5,67.5,,150,160,-165,160,,340,Ireland,SBD,Raw,Yes,1
Gemma Lucas,36,F,F_OR_AWPC,71.75,75,,,,,,,,,,,125,135,145,145,,145,UK,D,Raw,Yes,1
Gemma Lucas,36,F,F_OR_AWPC,69.05,75,90,100,107.5,107.5,,50,52.5,55,55,,125,135,140,140,,302.5,UK,SBD,Raw,Yes,5
Joleen Bradley,38,F,F_OR_AWPC,68.65,75,100,110,115,115,,47.5,52.5,-55,52.5,,135,152.5,-172.5,152.5,,320,Ireland,SBD,Raw,Yes,4
Samantha Vickers,33,F,F_OR_AWPC,72.15,75,115,122.5,130,130,,65,70,-72.5,70,,140,-150,-150,140,,340,UK,SBD,Raw,Yes,3
Katie Rourke,24,F,F_OR_AWPC,74.7,75,115,122.5,130,130,,60,65,70,70,,140,150,-160,150,,350,UK,SBD,Raw,Yes,2
Laura Smith #1,37,F,F_OR_AWPC,71.25,75,122.5,135,142.5,142.5,,67.5,72.5,-75,72.5,,150,-162.5,-162.5,150,,365,UK,SBD,Raw,Yes,1
Emma Ryall,36,F,F_OR_AWPC,78.9,82.5,,,,,,55,60,65,65,,,,,,,65,Ireland,B,Raw,Yes,1
Emma Ryall,36,F,F_OR_AWPC,78.9,82.5,,,,,,,,,,,130,142.5,-147.5,142.5,,142.5,Ireland,D,Raw,Yes,1
Amy Pollard,25,F,F_OR_AWPC,87.65,90,125,132.5,140,140,,47.5,55,-62.5,55,,135,150,-160,150,,345,UK,SBD,Raw,Yes,1
Sarah Skehan,30,F,F_OR_AWPC,110.7,90+,,,,,,62.5,65,-70,65,,,,,,,65,Ireland,B,Raw,Yes,2
Louise Kershaw,25,F,F_OR_AWPC,96.65,90+,,,,,,60,65,67.5,67.5,,,,,,,67.5,Ireland,B,Raw,Yes,1
Louise Kershaw,25,F,F_OR_AWPC,96.65,90+,,,,,,,,,,,130,140,147.5,147.5,,147.5,Ireland,D,Raw,Yes,1
Johana Riquier,39,F,F_OR_AWPC,93.85,90+,95,105,107.5,107.5,,50,52.5,-55,52.5,,110,120,-132.5,120,,280,UK,SBD,Raw,Yes,6
Sarah Knight,34,F,F_OR_AWPC,114.3,90+,120,130,137.5,137.5,,75,-80,-80,75,,120,130,-140,130,,342.5,UK,SBD,Raw,Yes,5
Vicki Highet,30,F,F_OR_AWPC,135.2,90+,-122.5,-122.5,122.5,122.5,,87.5,-95,-95,87.5,,142.5,152.5,-160,152.5,,362.5,UK,SBD,Raw,Yes,4
Sarah Skehan,30,F,F_OR_AWPC,112.15,90+,125,135,140,140,,65,70,-72.5,70,,145,152.5,160,160,,370,Ireland,SBD,Raw,Yes,3
Emmey Wells,34,F,F_OR_AWPC,108.3,90+,135,145,152.5,152.5,,62.5,67.5,-72.5,67.5,,157.5,170,-180,170,,390,UK,SBD,Raw,Yes,2
Lucinda Perrett,27,F,F_OR_AWPC,128.3,90+,-135,135,145,145,,72.5,77.5,-80,77.5,,155,170,-180,170,,392.5,UK,SBD,Raw,Yes,1
Natalia Hipola Carrasco,37,F,F_OR_WPC,60,60,,,,,,,,,,,150,162.5,-167.5,162.5,,162.5,Spain,D,Raw,,1
Sandra Evans,34,F,F_OR_WPC,61.55,67.5,,,,,,52.5,55,-57.5,55,,,,,,,55,Ireland,B,Raw,,2
Lolita Zankl,60,F,F_OR_WPC,65.5,67.5,,,,,,100,110,115,115,,,,,,,115,Germany,B,Raw,,1
Lolita Zankl,60,F,F_OR_WPC,65.5,67.5,,,,,,,,,,,160,170,180,180,,180,Germany,D,Raw,,1
Antonella La Malfa,31,F,F_OR_WPC,68.45,75,,,,,,80,85,87.5,87.5,,,,,,,87.5,Italy,B,Raw,,1
Antonella La Malfa,31,F,F_OR_WPC,68.45,75,,,,,,,,,,,147.5,157.5,-162.5,157.5,,157.5,Italy,D,Raw,,1
Sarah Skehan,30,F,F_OR_WPC,111.95,90+,,,,,,,,,,,145,-165,-165,145,,145,Ireland,D,Raw,,1
Sue Vaughey,38,F,F_OR_WPC,100,90+,115,130,140,140,,65,72.5,-75,72.5,,135,147.5,155,155,,367.5,Ireland,SBD,Raw,,1
Jade Medhurst,17,F,F_TCR_2_AWPC,67.25,67.5,92.5,97.5,-102.5,97.5,,55,-60,-60,55,,135,142.5,-153,142.5,,295,UK,SBD,Wraps,Yes,1
Claudia Campino Ibaibarriaga,16,F,F_TCR_2_WPC,64.9,67.5,150,160,165,165,,70,72.5,-75,72.5,,155,162.5,165,165,,402.5,Spain,SBD,Wraps,,1
Leah Cheung,19,F,F_TCR_3_AWPC,59.75,60,117.5,122.5,127.5,127.5,,55,57.5,-60.5,57.5,,120,125,130,130,135,315,Ireland,SBD,Wraps,Yes,1
Fanny Boudon,18,F,F_TCR_3_WPC,59.25,60,,,,,,60,65,-70,65,,,,,,,65,France,B,Raw,,1
Fanny Boudon,18,F,F_TCR_3_WPC,59.25,60,,,,,,,,,,,120,130,-145.5,130,,130,France,D,Raw,,1
Alannah Ford,19,F,F_TR_3_AWPC,49,52,,,,,,,,,,,95,-105,105,105,,105,Ireland,D,Raw,Yes,1
Kayleigh Morris,18,F,F_TR_3_AWPC,91.25,90+,,,,,,,,,,,100,115,-120,115,,115,UK,D,Raw,Yes,1
Linda Hicks,57,F,F_MES_4_AWPC,71.5,75,120,127.5,132.5,132.5,,85,92.5,-97.5,92.5,,145,-155,,145,,370,UK,SBD,Single-ply,Yes,1
Bradley Nortcliffe,23,M,M_JCR_AWPC,59.9,60,170,180,183,183,,105,112.5,117.5,117.5,,-205,215,227.5,227.5,-240,528,UK,SBD,Wraps,Yes,1
Tristan McDonagh,22,M,M_JCR_AWPC,71.05,75,-182.5,182.5,-190,182.5,,115,-120,-120,115,,182.5,190,-200,190,,487.5,Ireland,SBD,Wraps,Yes,1
Dylan Cilliers,20,M,M_JCR_AWPC,80.05,82.5,192.5,202.5,-207.5,202.5,,120,130,-132.5,130,,235,-253,253,253,,585.5,UK,SBD,Wraps,Yes,1
Sean Green #1,20,M,M_JCR_AWPC,87.2,90,162.5,170,-180,170,,92.5,97.5,-102.5,97.5,,207.5,217.5,-222.5,217.5,,485,UK,SBD,Wraps,Yes,2
James Martin,23,M,M_JCR_AWPC,88.6,90,180,195,207.5,207.5,,115,122.5,-127.5,122.5,,-210,220,235,235,,565,UK,SBD,Wraps,Yes,1
Rhys Manning,21,M,M_JCR_AWPC,98.75,100,195,210,-220,210,,130,137.5,140,140,,230,245,255,255,260,605,Ireland,SBD,Wraps,Yes,1
Ben Flawith,22,M,M_JCR_AWPC,130.15,140,260,280,-300,280,,175,-190,-190,175,,270,300,-310,300,,755,UK,SBD,Wraps,Yes,1
Roman Malo,22,M,M_JCR_WPC,74.95,75,200,-210,210,210,,115,-120,120,120,,235,250,-255,250,,580,France,SBD,Wraps,,1
Ashley Armstrong #1,23,M,M_JCR_WPC,81.9,82.5,-247.5,-247.5,247.5,247.5,,165,172.5,-175,172.5,,280,300,305,305,,725,UK,SBD,Wraps,,1
Brian Antonioli,23,M,M_JCR_WPC,105.05,110,240,250,260,260,,135,142.5,150,150,,242.5,252.5,260,260,,670,Italy,SBD,Wraps,,5
Luca Bartoloni,21,M,M_JCR_WPC,108.65,110,260,-275,-275,260,,157.5,165,167.5,167.5,,260,-285,,260,,687.5,Ireland,SBD,Wraps,,4
Jose Luis Dominguez Martines,21,M,M_JCR_WPC,106.03,110,240,260,-270,260,,200,-205,-205,200,,240,260,-270,260,,720,Spain,SBD,Wraps,,3
Ciaran O'Connor,22,M,M_JCR_WPC,106.6,110,250,265,285,285,,-150,150,162.5,162.5,,275,-300,,275,,722.5,Ireland,SBD,Wraps,,2
Tom Hudson,23,M,M_JCR_WPC,106.6,110,240,265,-282.5,265,,155,-162.5,,155,,305,320,-327.5,320,,740,UK,SBD,Wraps,,1
Aaron Hayes,22,M,M_JCR_WPC,138,140,270,-290,-290,270,,165,-170,,165,,270,-285,,270,,705,Ireland,SBD,Wraps,,1
Sean Hough,22,M,M_JEM_WPC,115.6,125,,,,,,-190,200,-210,200,,,,,,,200,Ireland,B,Multi-ply,,1
Sean Hough,22,M,M_JEM_WPC,115.6,125,,,,,,,,,,,255,270,-280,270,,270,Ireland,D,Multi-ply,,1
Luke O'Brien,21,M,M_JES_AWPC,84.7,90,240,-255,255,255,,145,155,-160,155,,215,230,,230,,640,Ireland,SBD,Single-ply,Yes,1
Amari Robinson,23,M,M_JR_AWPC,73.95,75,205,-215,215,215,,-135,-135,135,135,,200,215,-230,215,,565,UK,SBD,Raw,Yes,1
Adam Loughnane,21,M,M_JR_AWPC,81.5,82.5,,,,,,,,,,,240,250,-260.5,250,,250,Ireland,D,Raw,Yes,1
Cillian O'Connell,20,M,M_JR_AWPC,99,100,,,,,,125,130,-132.5,130,,,,,,,130,Ireland,B,Raw,Yes,1
Cillian O'Connell,20,M,M_JR_AWPC,99,100,,,,,,,,,,,-200,210,220,220,,220,Ireland,D,Raw,Yes,1
Andrea Maiolino,21,M,M_JR_WPC,66.7,67.5,140,150,,150,,102.5,-107.5,-107.5,102.5,,200,210,-225,210,,462.5,Italy,SBD,Raw,,2
Stefano De Michelis,20,M,M_JR_WPC,66.8,67.5,130,140,,140,,115,-120,120,120,,225,235,242.5,242.5,,502.5,Italy,SBD,Raw,,1
Marco Gelmini,23,M,M_JR_WPC,81.4,82.5,-205,205,210,210,,135,142.5,-150,142.5,,235,245,-252.5,245,,597.5,Italy,SBD,Raw,,1
James Keogh,44,M,M_MCR_1_AWPC,96.15,100,155,165,-175,165,,110,115,120,120,,170,180,-185,180,,465,Ireland,SBD,Wraps,Yes,3
John Penn,41,M,M_MCR_1_AWPC,94.25,100,190,200,210,210,,105,115,-120,115,,225,-240,245,245,,570,UK,SBD,Wraps,Yes,2
Conor Kelly,43,M,M_MCR_1_AWPC,99.35,100,225,235,245,245,,110,,,110,,235,-250,250,250,,605,Ireland,SBD,Wraps,Yes,1
Dave Looney,41,M,M_MCR_1_AWPC,107.8,110,220,235,-245,235,,110,115,-117.5,115,,220,235,-250,235,,585,Ireland,SBD,Wraps,Yes,1
Gabriele Calista,40,M,M_MCR_1_WPC,89.7,90,265,280,-285,280,,135,140,-145,140,,265,285,300,300,,720,Italy,SBD,Wraps,,1
Daniel Martinez Presa,44,M,M_MCR_1_WPC,109.1,110,360,380,390,390,,170,180,185,185,,300,325,-330,325,,900,Spain,SBD,Wraps,,1
Matt Mawson,45,M,M_MCR_2_AWPC,99.6,100,190,-202.5,-210,190,,125,130,135,135,,200,215,225,225,,550,UK,SBD,Wraps,Yes,1
Seamus Kirwan,47,M,M_MCR_2_WPC,89.75,90,225,-235,-235,225,,120,125,-135,125,,230,241,250,250,,600,Ireland,SBD,Wraps,,1
Aidas Steponavičius,48,M,M_MCR_2_WPC,98.1,100,265,275,-285,275,,145,150,155,155,,240,250,-260,250,,680,Ireland,SBD,Wraps,,1
Seán Cregan,54,M,M_MCR_3_AWPC,78.9,82.5,190,200,-211,200,,100,-105,-105,100,,200,210,-215,210,,510,Ireland,SBD,Wraps,Yes,1
Andre Du Plessis,54,M,M_MCR_3_AWPC,155.55,140+,260,280,290,290,300,160,170,-175,170,,260,280,290,290,300,750,Ireland,SBD,Raw,Yes,1
Kevin Smith #21,56,M,M_MCR_4_WPC,87.2,90,135,150,157.5,157.5,,107.5,115,-120,115,,185,200,212.5,212.5,,485,UK,SBD,Wraps,,1
John McDaid,61,M,M_MCR_5_AWPC,108.3,110,180,195,205,205,,130,137.5,142.5,142.5,,170,185,-190,185,,532.5,Ireland,SBD,Wraps,Yes,1
Paudie Phelan,44,M,M_MEM_1_WPC,122.25,125,,,,,,-202.5,-202.5,-202.5,,,,,,,,,Ireland,B,Multi-ply,,DQ
Paudie Phelan,44,M,M_MEM_1_WPC,122.75,125,,,,,,,,,,,-250,250,265,265,,265,Ireland,D,Multi-ply,,1
Shane Brodie,46,M,M_MEM_2_WPC,96.3,100,325,345,,345,,185,200,-205,200,,255,265,270,270,,815,Ireland,SBD,Multi-ply,,1
Eric Platel,47,M,M_MEM_2_WPC,108.6,110,,,,,,285,292.5,-300,292.5,,,,,,,292.5,France,B,Multi-ply,,1
Marcus Young,54,M,M_MEM_3_WPC,81.4,82.5,,,,,,165,175,185,185,,,,,,,185,Finland,B,Multi-ply,,1
Tahvo Jauhojärvi,57,M,M_MEM_4_WPC,74.65,75,,,,,,170,-180,-191,170,,,,,,,170,Sweden,B,Multi-ply,,1
Kevin Maher,58,M,M_MEM_4_WPC,99.8,100,,,,,,180,190,-200,190,,,,,,,190,UK,B,Multi-ply,,1
Martin Heindl,63,M,M_MEM_5_WPC,75.1,82.5,,,,,,105,110,112.5,112.5,,,,,,,112.5,Austria,B,Multi-ply,,1
Martin Heindl,63,M,M_MEM_5_WPC,75.1,82.5,,,,,,,,,,,185,206,215,215,,215,Austria,D,Multi-ply,,1
Micheal Gallagher,43,M,M_MES_1_AWPC,60,60,185,200,-210,200,,100,110,112.5,112.5,,170,185,,185,,497.5,Ireland,SBD,Single-ply,Yes,1
Stephen Rigley,42,M,M_MES_1_AWPC,80.4,82.5,,,,,,140,145,152.5,152.5,,,,,,,152.5,Ireland,B,Single-ply,Yes,1
Michael Coleman,43,M,M_MES_1_AWPC,104.4,110,,,,,,180,-192.5,-192.5,180,,,,,,,180,UK,B,Single-ply,Yes,1
Fabrice Lapiccirella,44,M,M_MES_1_WPC,80.9,82.5,,,,,,-172.5,-172.5,-172.5,,,,,,,,,France,B,Single-ply,,DQ
Graeme Quirke,40,M,M_MES_1_WPC,88.75,90,285,300,307.5,307.5,,205,-208,208,208,,245,-255,-260,245,,760.5,Ireland,SBD,Single-ply,,2
James Chapman #3,43,M,M_MES_1_WPC,89.1,90,300,315,325,325,,187.5,-200,202.5,202.5,,227.5,242.5,247.5,247.5,,775,UK,SBD,Single-ply,,1
Michael Coleman,43,M,M_MES_1_WPC,105.4,110,,,,,,180,-192.5,192.5,192.5,,,,,,,192.5,Ireland,B,Single-ply,,1
Oskars Zvarts,40,M,M_MES_1_WPC,139.6,140,,,,,,260,280,292.5,292.5,,,,,,,292.5,Ireland,B,Single-ply,,1
Tommy Rundqvist,43,M,M_MES_1_WPC,148.05,140+,,,,,,140,280,-295.5,280,,,,,,,280,Sweden,B,Single-ply,,1
Kenneth Taaffe,45,M,M_MES_2_AWPC,89.2,90,,,,,,,,,,,270,292.5,-300,292.5,,292.5,Ireland,D,Single-ply,Yes,1
Paul Morgan,46,M,M_MES_2_AWPC,105.9,110,,,,,,-260,-260,-270,,,,,,,,,UK,B,Single-ply,Yes,DQ
Paul Morgan,46,M,M_MES_2_WPC,106.95,110,,,,,,150,-260,-270,150,,,,,,,150,UK,B,Single-ply,,1
Andre Du Plessis,54,M,M_MES_3_AWPC,155.9,140+,,,,,,202.5,-212.5,,202.5,,,,,,,202.5,Ireland,B,Single-ply,Yes,1
Andre Du Plessis,54,M,M_MES_3_AWPC,155.9,140+,,,,,,,,,,,270,290,-300,290,,290,Ireland,D,Single-ply,Yes,1
Marcus Young,54,M,M_MES_3_WPC,81.4,82.5,,,,,,160,175,-182.5,175,,,,,,,175,Finland,B,Single-ply,,1
David Gibson,53,M,M_MES_3_WPC,86.7,90,,,,,,160,167.5,172.5,172.5,177.5,,,,,,172.5,UK,B,Single-ply,,1
David Gibson,53,M,M_MES_3_WPC,86.7,90,,,,,,160,167.5,172.5,172.5,177.5,,,,,,172.5,UK,B,Single-ply,,1
Phil Watkins,50,M,M_MES_3_WPC,93.45,100,,,,,,,,,,,300,317.5,,317.5,,317.5,UK,D,Single-ply,,1
Rob Preston,50,M,M_MES_3_WPC,107.65,110,,,,,,235,245,255,255,,,,,,,255,UK,B,Single-ply,,1
Eric Bar,50,M,M_MES_3_WPC,121.7,125,,,,,,197.5,-205,205,205,,,,,,,205,France,B,Single-ply,,1
Adrian Phillips,55,M,M_MES_4_AWPC,96.1,100,225,235,-245,235,,142.5,-147.5,-147.5,142.5,,230,245,252.5,252.5,,630,UK,SBD,Single-ply,Yes,1
Tahvo Jauhojärvi,57,M,M_MES_4_WPC,74.65,75,,,,,,165,170,,170,,,,,,,170,Sweden,B,Single-ply,,1
Rik Davison,58,M,M_MES_4_WPC,96.8,100,,,,,,,,,,,240,260.5,-270,260.5,,260.5,UK,D,Single-ply,,1
Sergei Gusev,43,M,M_MR_1_AWPC,65.8,67.5,,,,,,,,,,,125,130,145,145,,145,Russia,D,Raw,Yes,1
Stephen Rigley,42,M,M_MR_1_AWPC,80.4,82.5,,,,,,125,130,135,135,,,,,,,135,Ireland,B,Raw,Yes,1
Brendan O'Rourke,42,M,M_MR_1_AWPC,89.3,90,,,,,,142.5,147.5,-150,147.5,,,,,,,147.5,Ireland,B,Raw,Yes,1
Brendan O'Rourke,42,M,M_MR_1_AWPC,89.3,90,,,,,,,,,,,232.5,245,250,250,,250,Ireland,D,Raw,Yes,1
David Aboayge,41,M,M_MR_1_AWPC,105.9,110,190,200,210,210,,110,120,-125,120,,190,200,210,210,,540,UK,SBD,Raw,Yes,1
James Hickey,42,M,M_MR_1_AWPC,126.5,140,,,,,,200,210,-220,210,,,,,,,210,Ireland,B,Raw,Yes,1
James Hickey,42,M,M_MR_1_AWPC,126.5,140,,,,,,,,,,,310,350,-372.5,350,,350,Ireland,D,Raw,Yes,1
Leo McCabe,44,M,M_MR_1_WPC,88.75,90,,,,,,,,,,,210,220,-225,220,,220,Ireland,D,Raw,,1
Paul Smith,41,M,M_MR_1_WPC,89.25,90,-160,-160,160,160,,105,110,-112.5,110,,190,205,212.5,212.5,,482.5,Ireland,SBD,Raw,,1
Andrei Kabantseff,42,M,M_MR_1_WPC,106.55,110,,,,,,145,165,172.5,172.5,,,,,,,172.5,Estonia,B,Raw,,2
Pawel Stachurski,40,M,M_MR_1_WPC,108.45,110,,,,,,197.5,207.5,-215,207.5,,,,,,,207.5,Ireland,B,Raw,,1
Sandro Eusébio,44,M,M_MR_1_WPC,109.85,110,,,,,,,,,,,300,-330,-330,300,,300,Portugal,D,Raw,,1
Tony Roscoe,48,M,M_MR_2_AWPC,80.75,82.5,,,,,,,,,,,-210,210,-226,210,,210,UK,D,Raw,Yes,1
David Carroll #1,49,M,M_MR_2_AWPC,81.65,82.5,140,145,150,150,,-100,102.5,-105,102.5,,170,180,190,190,,442.5,Ireland,SBD,Raw,Yes,1
Steven Middleton-Lowes,48,M,M_MR_2_AWPC,108.8,110,-220,220,240,240,,160,175,185,185,,250,282.5,-305,282.5,,707.5,UK,SBD,Raw,Yes,1
Sébastien Boizou,45,M,M_MR_2_WPC,81.5,82.5,,,,,,140,-150,150,150,,,,,,,150,France,B,Raw,,1
Sébastien Boizou,45,M,M_MR_2_WPC,81.5,82.5,,,,,,,,,,,220,-240,-245,220,,220,France,D,Raw,,1
Sébastien Boizou,45,M,M_MR_2_WPC,81.1,82.5,180,-200,200,200,,135,140,145,145,,210,220,230,230,,575,France,SBD,Raw,,1
Dominique Nussbaum,47,M,M_MR_2_WPC,99.9,100,,,,,,180,190,200,200,,,,,,,200,France,B,Raw,,1
Seamus Kirwan,47,M,M_MR_2_WPC,95,100,,,,,,-120,,,,,,,,,,,Ireland,B,Raw,,DQ
Seamus Kirwan,47,M,M_MR_2_WPC,95,100,,,,,,,,,,,225,240,-255,240,,240,Ireland,D,Raw,,1
Darren Hammond,47,M,M_MR_2_WPC,106.75,110,215,230,240,240,,132.5,140,-145,140,,275,305,-317.5,305,,685,UK,SBD,Raw,,1
Benny Ferander,47,M,M_MR_2_WPC,122.5,125,,,,,,180,190,-210,190,,,,,,,190,Sweden,B,Raw,,2
Zbigniew Strzelecki,46,M,M_MR_2_WPC,122.75,125,,,,,,-210,210,215,215,,,,,,,215,Poland,B,Raw,,1
Peter Diethalm,45,M,M_MR_2_WPC,126,140,,,,,,180,197.5,202.5,202.5,,,,,,,202.5,Switzerland,B,Raw,,1
Oliver Dorsch,46,M,M_MR_2_WPC,132.85,140,250,260,270,270,,160,170,-177.5,170,,260,-270,,260,,700,Germany,SBD,Raw,,1
David Morris #1,48,M,M_MR_2_WPC,157.25,140+,,,,,,215,225,-233,225,,,,,,,225,UK,B,Raw,,1
David Morris #1,48,M,M_MR_2_WPC,157.25,140+,,,,,,,,,,,292.5,-312.5,312.5,312.5,,312.5,UK,D,Raw,,1
Alan Motyer-Lowndes,50,M,M_MR_3_AWPC,81.1,82.5,125,-140,140,140,,70,80,-90,80,,120,140,-160,140,,360,UK,SBD,Raw,Yes,1
Michael McLaughlin,54,M,M_MR_3_WPC,78.6,82.5,,,,,,80,87.5,-95,87.5,,,,,,,87.5,Ireland,B,Raw,,2
Marcus Young,54,M,M_MR_3_WPC,81.4,82.5,,,,,,125,132.5,140,140,,,,,,,140,Finland,B,Raw,,1
Michael McLaughlin,54,M,M_MR_3_WPC,78.6,82.5,,,,,,,,,,,150,155,-162.5,155,,155,Ireland,D,Raw,,1
Patrick Bevan,52,M,M_MR_3_WPC,86.55,90,,,,,,130,135,,135,,,,,,,135,France,B,Raw,,3
David Gibson,53,M,M_MR_3_WPC,86.7,90,,,,,,140,145,152.5,152.5,,,,,,,152.5,UK,B,Raw,,2
David Gibson,53,M,M_MR_3_WPC,86.7,90,,,,,,140,145,152.5,152.5,,,,,,,152.5,UK,B,Raw,,2
Tilo Kupper,54,M,M_MR_3_WPC,89.1,90,,,,,,150,157.5,-160,157.5,,,,,,,157.5,Switzerland,B,Raw,,1
Sean Blackburn,51,M,M_MR_3_WPC,122.5,125,,,,,,182.5,187.5,-195,187.5,,,,,,,187.5,UK,B,Raw,,1
Eric Bar,50,M,M_MR_3_WPC,121.7,125,,,,,,,,,,,230,240,-245,240,,240,France,D,Raw,,1
Bosco Reid,59,M,M_MR_4_AWPC,87.9,90,,,,,,75,80,85,85,,,,,,,85,Ireland,B,Raw,Yes,1
Bosco Reid,59,M,M_MR_4_AWPC,87.9,90,,,,,,,,,,,145,155,165,165,,165,Ireland,D,Raw,Yes,1
Richard Kemp,58,M,M_MR_4_AWPC,88.75,90,145,-165,-165,145,,-90,90,-102.5,90,,200,-220,-220,200,,435,UK,SBD,Raw,Yes,1
Tahvo Jauhojärvi,57,M,M_MR_4_WPC,74.65,75,,,,,,125,132.5,,132.5,,,,,,,132.5,Sweden,B,Raw,,1
Patrice Huver,56,M,M_MR_4_WPC,89.4,90,,,,,,135,140,-145,140,,,,,,,140,France,B,Raw,,1
Rik Davison,57,M,M_MR_4_WPC,96.8,100,,,,,,,,,,,250,265,-276,265,,265,UK,D,Raw,,1
Andrew Moyler,57,M,M_MR_4_WPC,98.95,100,190,200,-207.5,200,,130,142.5,-145,142.5,,245,252.5,-257.5,252.5,,595,UK,SBD,Raw,,1
Peter Oram,64,M,M_MR_5_AWPC,89.9,90,105,-115,-115,105,,65,-75,-75,65,,160,180,-200,180,,350,UK,SBD,Raw,Yes,1
Bob Tollafield,61,M,M_MR_5_AWPC,97.5,100,115,122.5,130,130,,85,92.5,-100,92.5,,150,160,170,170,,392.5,UK,SBD,Raw,Yes,1
Ray Hunter,71,M,M_MR_7_AWPC,96.4,100,70,80,90,90,,55,60,-65,60,,135,145,160,160,,310,UK,SBD,Raw,Yes,1
Gerry Cronnelly Sr,83,M,M_MR_9_AWPC,97.05,100,,,,,,72.5,75,-80,75,,,,,,,75,Ireland,B,Raw,Yes,1
Barry Smith,32,M,M_OCR_AWPC,59.05,60,160,-175.5,177.5,177.5,,100,107.5,110,110,,175,185,195,195,,482.5,Ireland,SBD,Wraps,Yes,1
Chris Kershaw,30,M,M_OCR_AWPC,73.7,75,192.5,202.5,-210,202.5,,142.5,-150,-150,142.5,,190,200,207.5,207.5,,552.5,UK,SBD,Wraps,Yes,1
Dave Fitzpatrick,31,M,M_OCR_AWPC,82,82.5,220,227.5,232.5,232.5,,127.5,-135,-135,127.5,,227.5,237.5,-242.5,237.5,,597.5,Ireland,SBD,Wraps,Yes,1
Scott Webber,32,M,M_OCR_AWPC,88.95,90,180,-190,-190,180,,140,150,-152.5,150,,200,-210,,200,,530,UK,SBD,Wraps,Yes,3
Kevin McDermott,33,M,M_OCR_AWPC,88.5,90,182.5,192.5,200,200,,125,135,-140,135,,240,252.5,-260,252.5,,587.5,Ireland,SBD,Wraps,Yes,2
Luther Nzinga,28,M,M_OCR_AWPC,90,90,230,-237.5,237.5,237.5,,135,145,-150,145,,245,-255,260,260,,642.5,UK,SBD,Wraps,Yes,1
Antony Bryan,34,M,M_OCR_AWPC,96.45,100,200,210,215,215,,130,135,140,140,,230,245,250,250,,605,UK,SBD,Wraps,Yes,6
Joe Byrne,26,M,M_OCR_AWPC,99.6,100,220,227.5,-230,227.5,,140,147.5,-152.5,147.5,,215,225,235,235,,610,UK,SBD,Wraps,Yes,5
Tom Inglis,30,M,M_OCR_AWPC,94.4,100,230,-245,-245,230,,130,-140,-140,130,,225,240,260,260,,620,UK,SBD,Wraps,Yes,4
Martin McDonagh,34,M,M_OCR_AWPC,99.85,100,225,235,240,240,,145,150,155,155,,230,240,245,245,,640,Ireland,SBD,Wraps,Yes,3
Pete Tryner,47,M,M_OCR_AWPC,91.3,100,205,-215,220,220,,137.5,142.5,-147.5,142.5,,265,282.5,-292.5,282.5,,645,UK,SBD,Wraps,Yes,2
Kieran Hegarty,36,M,M_OCR_AWPC,99.2,100,245,265,-282.5,265,,150,160,170,170,,225,245,260,260,,695,Ireland,SBD,Wraps,Yes,1
Chris Brown,35,M,M_OCR_AWPC,107.4,110,230,-245,245,245,,150,-157.5,-157.5,150,,250,260,272.5,272.5,,667.5,UK,SBD,Wraps,Yes,1
Scott Neary,29,M,M_OCR_AWPC,115.65,125,-260,-260,260,260,,160,170,-180,170,,240,260,272.5,272.5,,702.5,UK,SBD,Wraps,Yes,2
William Newton #1,33,M,M_OCR_AWPC,113.7,125,300,312.5,-320,312.5,,170,-177.5,-177.5,170,,345,-355,-355,345,,827.5,UK,SBD,Wraps,Yes,1
Kane Francis,26,M,M_OCR_AWPC,132.9,140,250,265,,265,,170,-180,180,180,,260,275,290.5,290.5,,735.5,UK,SBD,Raw,Yes,1
Vincent Todaro,34,M,M_OCR_WPC,59.15,60,165,-170,-170,165,,90,92.5,-97.5,92.5,,200,207.5,210,210,,467.5,France,SBD,Wraps,,1
Manuel Celeghin,27,M,M_OCR_WPC,69.25,75,150,-170,170,170,,90,-100,-100,90,,180,-200,-200,180,,440,Italy,SBD,Wraps,,3
Niall Reddan,26,M,M_OCR_WPC,74,75,210,220,-232.5,220,,137.5,140,142.5,142.5,,210,225,235,235,,597.5,Ireland,SBD,Wraps,,2
Cyril Diago,26,M,M_OCR_WPC,73.85,75,250,262.5,270,270,,145,152.5,155,155,,245,260,-265.5,260,,685,France,SBD,Wraps,,1
Donovan Rognon,29,M,M_OCR_WPC,77.35,82.5,200,-220,-220,200,,-110,110,-115,110,,-250,250,,250,,560,France,SBD,Wraps,,2
Sylvain Bayamati,29,M,M_OCR_WPC,81.55,82.5,-220,220,-240,220,,-140,,152.5,152.5,,240,255,-262.5,255,,627.5,France,SBD,Wraps,,1
PJ Kehoe,25,M,M_OCR_WPC,87.45,90,245,255,-260,255,,140,150,155,155,,200,215,230,230,,640,Ireland,SBD,Wraps,,4
Ian Williams #1,26,M,M_OCR_WPC,88.45,90,-230,-230,230,230,,165,170,-172.5,170,,235,245,250,250,,650,UK,SBD,Wraps,,3
Jacek Toczydlowski,37,M,M_OCR_WPC,89.35,90,240.5,255,265,265,,155,162.5,167.5,167.5,,245,257.5,267.5,267.5,,700,UK,SBD,Wraps,,2
Gabriele Calista,40,M,M_OCR_WPC,89.7,90,265,280,-285,280,,135,140,-145,140,,265,285,300,300,,720,Italy,SBD,Wraps,,1
Thomas Belkacemi,32,M,M_OCR_WPC,88,90,-240,,-260,,,-150,,,,,,,,,,,France,SBD,Wraps,,DQ
Michael Crowley,29,M,M_OCR_WPC,96.4,100,185,200,-210,200,,107.5,117.5,122.5,122.5,,215,225,237.5,237.5,,560,Ireland,SBD,Wraps,,3
Herman Fibranz,35,M,M_OCR_WPC,98.7,100,230,-240,-250,230,,180,-200,-200,180,,240,260,-272.5,260,,670,France,SBD,Wraps,,2
Robert Masson,28,M,M_OCR_WPC,98.3,100,320,340,-350,340,,160,170,172.5,172.5,,260,287.5,300,300,,812.5,Scotland,SBD,Wraps,,1
Samir Mechat,34,M,M_OCR_WPC,105.7,110,215,-235,245,245,,170,180,-190,180,,300,320,-330,320,,745,France,SBD,Wraps,,4
Naël Cetout,29,M,M_OCR_WPC,108,110,-280,280,305,305,,200,207.5,-212.5,207.5,,-320,320,-340,320,,832.5,France,SBD,Wraps,,3
Filippo Ingrosso,34,M,M_OCR_WPC,105.7,110,340,360,-370,360,,190,200,202.5,202.5,,315,330,,330,,892.5,Italy,SBD,Wraps,,2
Daniel Martinez Presa,44,M,M_OCR_WPC,109.1,110,360,380,390,390,,170,180,185,185,,300,325,-330,325,,900,Spain,SBD,Wraps,,1
Hristo Muskov,33,M,M_OCR_WPC,124.4,125,290,310,325,325,,185,200,210,210,,325,345,-360,345,,880,Bulgaria,SBD,Wraps,,2
Mike Overkamp,32,M,M_OCR_WPC,123.3,125,305,320,335,335,,190,202.5,-210,202.5,,310,340,355,355,,892.5,UK,SBD,Wraps,,1
Eamonn Harford,28,M,M_OCR_WPC,160,140+,325,337.5,,337.5,,195,-200,,195,,322.5,345,-366,345,,877.5,Ireland,SBD,Wraps,,1
Paulo Vilas-Boas,31,M,M_OEM_WPC,81.5,82.5,310,330,350,350,,185,192.5,-200,192.5,,275,290,310,310,,852.5,Portugal,SBD,Multi-ply,,1
Jeffrey O'Neill,28,M,M_OEM_WPC,96.5,100,,,,,,192.5,202.5,215,215,,,,,,,215,Ireland,B,Multi-ply,,1
Carlos Pérez #1,34,M,M_OEM_WPC,95.3,100,305,320,-340,320,,185,195,200,200,,250,270,-280,270,,790,Ireland,SBD,Multi-ply,,2
Shane Brodie,46,M,M_OEM_WPC,96.3,100,325,345,,345,,185,200,-205,200,,255,265,270,270,,815,Ireland,SBD,Multi-ply,,1
Louis Roustant,24,M,M_OEM_WPC,108.1,110,,,,,,245,255,265,265,,,,,,,265,France,B,Multi-ply,,1
Kalle Ylitalo-James,36,M,M_OEM_WPC,124.8,125,,,,,,-360,-365,-367.5,,,,,,,,,Finland,B,Multi-ply,,DQ
Bob Kiely,35,M,M_OEM_WPC,139.95,140,375,-400,-400,375,,250,260,272.5,272.5,,250,-275,275,275,,922.5,Ireland,SBD,Multi-ply,,1
Douglas Lisle,39,M,M_OES_AWPC,81.25,82.5,235,245,250,250,,-185,185,-200,185,,200,210,215,215,,650,UK,SBD,Single-ply,Yes,2
Daniel Whittall,25,M,M_OES_AWPC,82.5,82.5,267.5,290,-303,290,,-155,155,-165,155,,210,217.5,-225,217.5,,662.5,UK,SBD,Single-ply,Yes,1
Gavin Browne,28,M,M_OES_AWPC,89.6,90,,,,,,-150,,,,,,,,,,,Ireland,B,Single-ply,Yes,DQ
Gavin Browne,28,M,M_OES_AWPC,89.6,90,,,,,,,,,,,150,180,,180,,180,Ireland,D,Single-ply,Yes,1
Gavin Browne,28,M,M_OES_AWPC,89.6,90,-255,255,270,270,,155,-165,-165,155,,210,225,235,235,,660,Ireland,SBD,Single-ply,Yes,1
Nick Sazenski,25,M,M_OES_AWPC,99.25,100,290,305,317.5,317.5,,190,-200,-200,190,,-280,280,290,290,,797.5,Ireland,SBD,Single-ply,Yes,1
Paul Morgan,46,M,M_OES_AWPC,105.9,110,,,,,,-260,-260,-270,,,,,,,,,UK,B,Single-ply,Yes,DQ
David Campos,24,M,M_OES_WPC,82.5,82.5,230,250,270,270,,150,165,-180,165,,235,255,-280,255,,690,France,SBD,Single-ply,,2
Richie Power,35,M,M_OES_WPC,82.4,82.5,280,-310,-310,280,,210,-220,-220,210,,225,235,-250,235,,725,Ireland,SBD,Single-ply,,1
Graeme Quirke,40,M,M_OES_WPC,88.75,90,285,300,307.5,307.5,,205,-208,208,208,,245,-255,-260,245,,760.5,Ireland,SBD,Single-ply,,1
Gavin Browne,28,M,M_OES_WPC,96.65,100,,,,,,-150,155,165,165,,,,,,,165,Ireland,B,Single-ply,,1
Gavin Browne,28,M,M_OES_WPC,96.65,100,,,,,,,,,,,200,-230,230,230,,230,Ireland,D,Single-ply,,2
Phil Watkins,50,M,M_OES_WPC,93.45,100,,,,,,,,,,,300,317.5,,317.5,,317.5,UK,D,Single-ply,,1
Rinaldo Visser,37,M,M_OES_WPC,97.15,100,310,325,-340,325,,220,-230,-230,220,,300,315,-325,315,,860,Ireland,SBD,Single-ply,,1
Paul Morgan,46,M,M_OES_WPC,106.95,110,,,,,,150,-260,-270,150,,,,,,,150,UK,B,Single-ply,,2
Gaspare Impeduglia,31,M,M_OES_WPC,102.1,110,,,,,,195,205,210,210,,,,,,,210,Italy,B,Single-ply,,1
Marouane Baoufi,31,M,M_OES_WPC,106.45,110,,,,,,,,,,,270,-292.5,-302.5,270,,270,France,D,Single-ply,,2
Gaspare Impeduglia,31,M,M_OES_WPC,102.1,110,,,,,,,,,,,255,272.5,-302.5,272.5,,272.5,Italy,D,Single-ply,,1
Isak Apelgren,37,M,M_OES_WPC,118.75,125,,,,,,-210,,,,,,,,,,,Sweden,B,Single-ply,,DQ
Isak Apelgren,37,M,M_OES_WPC,118.75,125,,,,,,,,,,,290,300,-310,300,,300,Sweden,D,Single-ply,,1
Andreas Møller,37,M,M_OES_WPC,129.95,140,-340,-340,-340,,,,,,,,,,,,,,,SBD,Single-ply,,DQ
Tommy Rundqvist,43,M,M_OES_WPC,148.05,140+,,,,,,140,280,-295.5,280,,,,,,,280,Sweden,B,Single-ply,,1
Romesh Tenuwera,36,M,M_OR_AWPC,50.65,52,,,,,,,,,,,135,145,155,155,,155,UK,D,Raw,Yes,1
David Howley,37,M,M_OR_AWPC,74.7,75,167.5,-175,-175,167.5,,105,110,-112.5,110,,200,-207.5,,200,,477.5,Ireland,SBD,Raw,Yes,1
Jack Howe,27,M,M_OR_AWPC,81.9,82.5,,,,,,120,-127.5,-127.5,120,,,,,,,120,UK,B,Raw,Yes,2
Thomas McCague,39,M,M_OR_AWPC,81.6,82.5,,,,,,127.5,135,140,140,,,,,,,140,Ireland,B,Raw,Yes,1
Mark Pepper,33,M,M_OR_AWPC,79.65,82.5,,,,,,,,,,,200,207.5,-215,207.5,,207.5,Ireland,D,Raw,Yes,3
Chris Wehbe,37,M,M_OR_AWPC,82.3,82.5,,,,,,,,,,,220,240,245,245,,245,UK,D,Raw,Yes,2
Adam Loughnane,21,M,M_OR_AWPC,81.5,82.5,,,,,,,,,,,240,250,-260.5,250,,250,Ireland,D,Raw,Yes,1
Jack Howe,27,M,M_OR_AWPC,82.5,82.5,-120,130,140,140,,115,125,127.5,127.5,,190,210,215,215,,482.5,UK,SBD,Raw,Yes,2
Ash Roberts #1,27,M,M_OR_AWPC,81.85,82.5,160,170,180,180,,110,120,-125,120,,210,220,-230,220,,520,UK,SBD,Raw,Yes,1
Brendan O'Rourke,42,M,M_OR_AWPC,89.3,90,,,,,,142.5,147.5,-150,147.5,,,,,,,147.5,Ireland,B,Raw,Yes,1
Callum Pickering,27,M,M_OR_AWPC,86.8,90,170,-185,-185,170,,110,120,-130,120,,210,225,232.5,232.5,,522.5,UK,SBD,Raw,Yes,2
Liam Salmon,33,M,M_OR_AWPC,89.8,90,-220,220,-230,220,,150,-160,,150,,220,265,-275,265,,635,UK,SBD,Raw,Yes,1
Ian Brennan,31,M,M_OR_AWPC,92.25,100,,,,,,100,-105,105,105,,,,,,,105,Ireland,B,Raw,Yes,2
Shane O'Connell,32,M,M_OR_AWPC,97.25,100,,,,,,172.5,-180,-180,172.5,,,,,,,172.5,Ireland,B,Raw,Yes,1
Ian Brennan,31,M,M_OR_AWPC,92.25,100,,,,,,,,,,,150,155,157.5,157.5,,157.5,Ireland,D,Raw,Yes,2
Shane O'Connell,32,M,M_OR_AWPC,97.25,100,,,,,,,,,,,255,265,275,275,,275,Ireland,D,Raw,Yes,1
Ian Brennan,31,M,M_OR_AWPC,93.9,100,140,-150,-150,140,,102.5,105,-107.5,105,,160,165,172.5,172.5,,417.5,Ireland,SBD,Raw,Yes,1
Andrew Whitaker,36,M,M_OR_AWPC,106.2,110,,,,,,200,-217.5,-227.5,200,,,,,,,200,UK,B,Raw,Yes,1
Andrew Whitaker,36,M,M_OR_AWPC,106.2,110,,,,,,200,-217.5,-227.5,200,,,,,,,200,UK,B,Raw,Yes,1
John Smith #4,32,M,M_OR_AWPC,109.3,110,80,,,80,,70,,,70,,70,,,70,,220,UK,SBD,Raw,Yes,2
Andrew Davey,35,M,M_OR_AWPC,107.2,110,220,240,-250,240,,182.5,192.5,-202.5,192.5,,-260,265,-282.5,265,,697.5,UK,SBD,Raw,Yes,1
Warren Whitaker,32,M,M_OR_AWPC,119.95,125,,,,,,175,185,192.5,192.5,,,,,,,192.5,UK,B,Raw,Yes,1
Adrian Bradbury,37,M,M_OR_AWPC,118.3,125,190,200,205,205,,125,135,-137.5,135,,245,257.5,265,265,,605,UK,SBD,Raw,Yes,1
Jamie Hogan,31,M,M_OR_AWPC,145.4,140+,,,,,,105,110,-115,110,,,,,,,110,Ireland,B,Raw,Yes,1
Jamie Hogan,31,M,M_OR_AWPC,145.4,140+,,,,,,,,,,,170,185,195,195,,195,Ireland,D,Raw,Yes,2
James McNamara,36,M,M_OR_AWPC,149.9,140+,,,,,,,,,,,210,225,-230,225,,225,Ireland,D,Raw,Yes,1
Jamie Hogan,31,M,M_OR_AWPC,145.5,140+,145,155,165,165,,105,110,112.5,112.5,,165,182.5,190,190,,467.5,Ireland,SBD,Raw,Yes,2
James McNamara,36,M,M_OR_AWPC,148.8,140+,190,-200,-200,190,,105,110,-115,110,,210,-220,220,220,,520,Ireland,SBD,Raw,Yes,1
Frankie Kemp,26,M,M_OR_AWPC,139.95,140,255,-265,-265,255,,165,175,185,185,,260,272.5,280,280,,720,UK,SBD,Raw,Yes,1
Vincent Todaro,34,M,M_OR_WPC,59.15,60,,,,,,,,,,,200,210,212.5,212.5,,212.5,France,D,Raw,,1
Ben Walsh,27,M,M_OR_WPC,78,82.5,,,,,,130,140,145,145,,,,,,,145,Ireland,B,Raw,,2
Attila Gembiczki,32,M,M_OR_WPC,82.05,82.5,,,,,,190,200,-205,200,,,,,,,200,Hungary,B,Raw,,1
Jamal Saadi,34,M,M_OR_WPC,78.65,82.5,,,,,,,,,,,-250,250,-270,250,,250,France,D,Raw,,4
Donovan Rognon,29,M,M_OR_WPC,77.7,82.5,,,,,,,,,,,-250,250,-270,250,,250,France,D,Raw,,3
Tom Mannion,38,M,M_OR_WPC,81.65,82.5,,,,,,,,,,,270,282.5,-297.5,282.5,,282.5,Ireland,D,Raw,,2
Jaime Colino,30,M,M_OR_WPC,80.15,82.5,,,,,,,,,,,275,295,315,315,,315,Spain,D,Raw,,1
Chris Allison,34,M,M_OR_WPC,81.8,82.5,185,200,-212.5,200,,117.5,-125,125,125,,210,220,-230,220,,545,UK,SBD,Raw,,2
Russell Taylor #1,36,M,M_OR_WPC,81.8,82.5,215,225,-232.5,225,,145,152.5,-160,152.5,,250,-270,-270,250,,627.5,UK,SBD,Raw,,1
Mark Hennessy,24,M,M_OR_WPC,89.65,90,,,,,,145,-150,-150,145,,,,,,,145,Ireland,B,Raw,,3
Valentin Rohm,24,M,M_OR_WPC,84.4,90,,,,,,150,157.5,160,160,,,,,,,160,Germany,B,Raw,,2
Tommy Dolan,32,M,M_OR_WPC,89.6,90,,,,,,200,207.5,212.5,212.5,,,,,,,212.5,Ireland,B,Raw,,1
Antonino Scilipoti,30,M,M_OR_WPC,89.25,90,210,220,-225,220,,120,125,-130,125,,250,260,270,270,,615,Italy,SBD,Raw,,3
Jordan Gretton-Doidge,30,M,M_OR_WPC,89.4,90,170,187.5,195,195,,150,162.5,167.5,167.5,,260,272.5,285,285,,647.5,UK,SBD,Raw,,2
Luke Nash,32,M,M_OR_WPC,88.8,90,210,225,235,235,,145,155,-160,155,,255,270,275,275,,665,UK,SBD,Raw,,1
Baptiste Marchais,25,M,M_OR_WPC,97.8,100,,,,,,220,-235,235,235,,,,,,,235,France,B,Raw,,1
Jason Boggan,30,M,M_OR_WPC,99.25,100,200,230,242.5,242.5,,130,142.5,-152.5,142.5,,240,270,-282.5,270,,655,Ireland,SBD,Raw,,2
Matteo Bozza,26,M,M_OR_WPC,90.6,100,225,230,240,240,,160,165,-170,165,,275,285,-292.5,285,,690,Italy,SBD,Raw,,1
Andrei Kabantseff,42,M,M_OR_WPC,106.55,110,,,,,,145,165,172.5,172.5,,,,,,,172.5,Estonia,B,Raw,,3
Gaspare Impeduglia,31,M,M_OR_WPC,102.1,110,,,,,,170,-180,180,180,,,,,,,180,Italy,B,Raw,,2
Jonathan Bottin,31,M,M_OR_WPC,108,110,,,,,,-207.5,207.5,-210,207.5,,,,,,,207.5,France,B,Raw,,1
Sandro Eusébio,44,M,M_OR_WPC,110,110,,,,,,,,,,,300,-330,-330,300,,300,Portugal,D,Raw,,3
Naël Cetout,29,M,M_OR_WPC,106.95,110,,,,,,,,,,,310,-325,-325,310,,310,France,D,Raw,,2
Samir Mechat,34,M,M_OR_WPC,106.55,110,,,,,,,,,,,310,330,-335,330,,330,France,D,Raw,,1
Darren Hammond,47,M,M_OR_WPC,106.75,110,215,230,240,240,,132.5,140,-145,140,,275,305,-317.5,305,,685,UK,SBD,Raw,,3
Arran Sullivan,28,M,M_OR_WPC,108.9,110,-260,260,280,280,,170,182.5,-190,182.5,,265,282.5,-290,282.5,,745,UK,SBD,Raw,,2
David O'Sullivan,27,M,M_OR_WPC,109.2,110,265,280,-287.5,280,,175,185,190,190,,315,332.5,-345,332.5,,802.5,UK,SBD,Raw,,1
Hristo Muskov,33,M,M_OR_WPC,123.35,125,,,,,,,,,,,310,335,-352.5,335,,335,Bulgaria,D,Raw,,1
Alexander Zaitsev,39,M,M_OR_WPC,116.65,125,300,315,325,325,,200,-210,,200,,300,315,-327.5,315,,840,Russia,SBD,Raw,,2
Alexander Clarke,29,M,M_OR_WPC,122.35,125,277.5,285,290,290,,205,212.5,220,220,,350,-370,-370,350,,860,UK,SBD,Raw,,1
Claudio Franceschi,26,M,M_OR_WPC,125.8,140,220,235,-250,235,,160,170,-180,170,,265,280,-290,280,,685,Italy,SBD,Raw,,1
Łukasz Toczylowski,34,M,M_OR_WPC,147.95,140+,,,,,,220,232.5,235,235,,,,,,,235,Italy,B,Raw,,1
Romualdas Bakutis,17,M,M_TCR_2_AWPC,79.65,82.5,170,180,190,190,,110,120,-125,120,,145,155,166,166,,476,UK,SBD,Wraps,Yes,1
Arnis Piekus,17,M,M_TCR_2_AWPC,89.7,90,180,-190,190,190,,97.5,102.5,-105,102.5,,195,-202.5,207.5,207.5,-212.5,500,Ireland,SBD,Wraps,Yes,1
William Darcy,16,M,M_TCR_2_AWPC,95.35,100,160,-180,180,180,,87.5,100,-102.5,100,,165,175,187.5,187.5,-200,467.5,Ireland,SBD,Wraps,Yes,1
George Purchase,17,M,M_TCR_2_AWPC,105.05,110,185,200,210,210,,95,105,,105,,185,200,210,210,,525,UK,SBD,Wraps,Yes,1
Berk Thundzhay Ahmed,17,M,M_TCR_2_WPC,68.5,75,190,200,210,210,,100,-110,-110,100,,200,-215,,200,,510,Spain,SBD,Wraps,,1
Sam Nejad,18,M,M_TCR_3_AWPC,81.4,82.5,170,182.5,-190,182.5,,-87.5,87.5,-97.5,87.5,,-180,180,190,190,,460,Ireland,SBD,Wraps,Yes,1
Jake Spottiswood,18,M,M_TCR_3_AWPC,99.8,100,170,180,187.5,187.5,,125,-132.5,-132.5,125,,195,-205,-205,195,,507.5,UK,SBD,Wraps,Yes,1
Elliot Schorp,19,M,M_TCR_3_WPC,98.5,100,200,215,-230,215,,135,142.5,147.5,147.5,,255,267.5,282.5,282.5,,645,France,SBD,Wraps,,1
Jake Coleman,13,M,M_TR_1_AWPC,56,56,,,,,,,,,,,70,80,90,90,,90,Ireland,D,Raw,Yes,1
Luke Thompson,14,M,M_TR_1_AWPC,69.25,75,,,,,,,,,,,100,110,-125,110,,110,Ireland,D,Raw,Yes,1
Michael Jon Nott,15,M,M_TR_1_AWPC,80.6,82.5,135,145,-150,145,,65,70,-75,70,,180,190,-200,190,,405,UK,SBD,Raw,Yes,1
Aaron Ryan,16,M,M_TR_2_AWPC,89.75,90,,,,,,115,120,127.5,127.5,,,,,,,127.5,Ireland,B,Raw,Yes,1
Aaron Ryan,16,M,M_TR_2_AWPC,89.75,90,,,,,,,,,,,205,215,220,220,,220,Ireland,D,Raw,Yes,1
Alex Thompson-Carse,17,M,M_TR_2_AWPC,86.8,90,175,190,-200,190,,100,105,110,110,,207.5,217.5,227.5,227.5,,527.5,UK,SBD,Raw,Yes,1
Nico Viljakainen,16,M,M_TR_2_WPC,94.2,100,,,,,,112.5,117.5,-122.5,117.5,,,,,,,117.5,Finland,B,Raw,,1
Nico Viljakainen,16,M,M_TR_2_WPC,94.2,100,,,,,,,,,,,175,190,-202.5,190,,190,Finland,D,Raw,,1
Roman Barbieri,19,M,M_TR_3_AWPC,72.7,75,175,-185,-185,175,,100,105,-110,105,,215,225,-235,225,,505,UK,SBD,Raw,Yes,1
Leo Conroy,19,M,M_TR_3_AWPC,81.2,82.5,-167.5,-172.5,172.5,172.5,,112.5,-117.5,-117.5,112.5,,222.5,232.5,235,235,,520,Ireland,SBD,Raw,Yes,1
Luke McHale,19,M,M_TR_3_AWPC,86.5,90,,,,,,65,70,-72.5,70,,,,,,,70,Ireland,B,Raw,Yes,1
Luke McHale,19,M,M_TR_3_AWPC,86.5,90,,,,,,,,,,,160,170,180,180,,180,Ireland,D,Raw,Yes,1
Evan Moore,18,M,M_TR_3_WPC,110.5,125,180,190,195,195,,95,102.5,105,105,,195,210,217.5,217.5,222.5,517.5,Ireland,SBD,Raw,,1
