Name,BodyweightKg,WeightClassKg,Division,AgeRange,Sex,Best3SquatKg,Squat4Kg,Best3BenchKg,Bench4Kg,Best3DeadliftKg,Deadlift4Kg,TotalKg,Event,Equipment,Age,Place
Dominic Page,,60,Teen,13-19,M,,,77.11,,,,77.11,B,Multi-ply,,1
Bill Poston,,110,Amateur Masters,40-999,M,,,154.22,,,,154.22,B,Multi-ply,,1
J. McNeill,,90,Amateur Masters 50-54,50-54,M,,,165.56,,,,165.56,B,Multi-ply,,1
Kelly Purnell,,82.5,Amateur Teen,13-19,F,,,63.5,,,,63.5,B,Multi-ply,,1
J. McNeill,,67.5,Amateur Masters 50-54,50-54,F,,,165.56,,,,165.56,B,Multi-ply,,1
Dawn Handy,,67.5,Amateur Masters 50-54,50-54,F,,,58.97,,,,58.97,B,Multi-ply,,2
Susan Scofield,,67.5,Amateur Submasters,33-39,F,,,88.45,,,,88.45,B,Multi-ply,,1
Cathy Falconio,,75,Amateur Masters,40-999,F,,,92.99,,,,92.99,B,Multi-ply,,1
Debra Erney,,75,Pro Open,,F,,,170.1,,,,170.1,B,Multi-ply,,1
Faith Dennis,,90+,Special Olympics Masters,40-999,F,90.72,,63.5,,102.06,,256.28,SBD,Multi-ply,,1
David Lee Hatfield,,67.5,Special Olympics,,M,79.38,,54.43,,97.52,,231.33,SBD,Multi-ply,,1
Jeff Hood,,100,Special Olympics,,M,136.08,,72.57,,195.04,,403.7,SBD,Multi-ply,,1
Byron Taylor,,125,Special Olympics,,M,154.22,,106.59,,174.63,,435.45,SBD,Multi-ply,,1
James Cathell,,140+,Special Olympics,,M,68.04,,70.31,,142.88,,281.23,SBD,Multi-ply,,1
Daniel Barnes,,110,Special Olympics Masters,40-999,M,226.8,,138.35,,,,365.14,SB,Multi-ply,,1
Glendoria Burris,,60,Amateur Open,,F,120.2,,54.43,,129.27,,303.91,SBD,Multi-ply,,1
Shannon Pole-Summers,,90,Amateur Teen,13-19,F,163.29,,92.99,,149.69,,405.97,SBD,Multi-ply,13,1
Glendoria Burris,,60,Amateur Submasters,33-39,F,120.2,,54.43,,129.27,,303.91,SBD,Multi-ply,,1
Christine Welcheck,,90+,Amateur Submasters,33-39,F,113.4,,54.43,,113.4,,281.23,SBD,Multi-ply,,1
Lynn Barlow,,48,Pro Open,,F,140.61,,79.38,,133.81,,353.8,SBD,Multi-ply,,1
Jacqueline Davis,,52,Pro Open,,F,154.22,,83.91,,176.9,,415.04,SBD,Multi-ply,,1
Jodi Teter,,60,Pro Open,,F,185.97,193.28,117.93,,163.29,,467.2,SBD,Multi-ply,,1
Traci Arnold-Tate,,60,Pro Open,,F,165.56,,108.86,,156.49,,430.91,SBD,Multi-ply,,1
Franklin McQuaid,,60,Amateur Open,,M,142.88,,97.52,,181.44,,421.84,SBD,Multi-ply,,1
Matthew Bastdorf,,67.5,Amateur Open,,M,176.9,,97.52,,167.83,,442.25,SBD,Multi-ply,,1
Roger Smith,,67.5,Amateur Open,,M,142.88,,122.47,,158.76,,424.11,SBD,Multi-ply,,2
Steve Shanebrook,,75,Amateur Open,,M,215.46,,131.54,,181.44,,528.44,SBD,Multi-ply,,1
William Powell,,75,Amateur Open,,M,170.1,,108.86,,188.24,,467.2,SBD,Multi-ply,,2
Vincent Johnson,,82.5,Amateur Open,,M,276.69,,181.44,,267.62,272.16,725.75,SBD,Multi-ply,,1
T. Jones,,82.5,Amateur Open,,M,165.56,,131.54,,215.46,,512.56,SBD,Multi-ply,,2
Steven Koch,,82.5,Amateur Open,,M,179.17,,117.93,,197.31,,494.42,SBD,Multi-ply,,3
Jim McDowell,,90,Amateur Open,,M,288.03,,172.37,,290.3,,750.7,SBD,Multi-ply,,1
Dave Bartal,,90,Amateur Open,,M,249.48,,149.69,,265.35,,664.51,SBD,Multi-ply,,2
Graham Wilkins,,90,Amateur Open,,M,249.48,,151.95,,242.67,,644.1,SBD,Multi-ply,,3
W. Welcheck,,90,Amateur Open,,M,204.12,,172.37,,263.08,,639.57,SBD,Multi-ply,,4
Jason Cox,,100,Amateur Open,,M,331.12,,224.53,,281.23,,836.88,SBD,Multi-ply,,1
R. McDonnell,,100,Amateur Open,,M,317.52,,190.51,,274.42,,782.45,SBD,Multi-ply,,3
T. Clausen,,100,Amateur Open,,M,283.5,,170.1,,272.16,,725.75,SBD,Multi-ply,,4
R. Krout,,100,Amateur Open,,M,274.42,,172.37,,249.48,,696.27,SBD,Multi-ply,,5
L. Pigford,,100,Amateur Open,,M,328.85,,183.71,,288.03,,800.59,SBD,Multi-ply,,2
Glenn Murphy,,52,Amateur Submasters,33-39,M,136.08,,92.99,,145.15,,374.21,SBD,Multi-ply,,1
Franklin McQuaid,,60,Amateur Submasters,33-39,M,142.88,,97.52,,181.44,,421.84,SBD,Multi-ply,,1
John Gengo,,67.5,Amateur Submasters,33-39,M,195.04,,131.54,,217.72,,544.31,SBD,Multi-ply,,1
Les Weibley,,75,Amateur Submasters,33-39,M,201.85,,113.4,,217.72,,532.97,SBD,Multi-ply,,1
Steve Shanebrook,,75,Amateur Submasters,33-39,M,215.46,,131.54,,181.44,,528.44,SBD,Multi-ply,,2
Steven Koch,,82.5,Amateur Submasters,33-39,M,179.17,,117.93,,197.31,,494.42,SBD,Multi-ply,,1
Dan Fields,,90,Amateur Submasters,33-39,M,249.48,,170.1,,226.8,,646.37,SBD,Multi-ply,,1
Walter Welcheck,,90,Amateur Submasters,33-39,M,204.12,,172.37,,263.08,,639.57,SBD,Multi-ply,,2
T. Repman,,90,Amateur Submasters,33-39,M,235.87,,131.54,,238.14,,605.55,SBD,Multi-ply,,3
Tim Reem,,100,Amateur Submasters,33-39,M,272.16,,172.37,,272.16,,716.68,SBD,Multi-ply,,1
Richard Safreed Jr,,125,Amateur Submasters,33-39,M,328.85,,219.99,,274.42,,823.27,SBD,Multi-ply,,1
Lindsey Pigford,,125,Amateur Submasters,33-39,M,328.85,,183.71,,288.03,,800.59,SBD,Multi-ply,,2
G. Hirsch,,125,Amateur Submasters,33-39,M,226.8,,165.56,,226.8,,619.15,SBD,Multi-ply,,3
R. Schwed,,140,Amateur Submasters,33-39,M,317.52,,195.04,,256.28,,768.84,SBD,Multi-ply,,1
David Oyler,,140+,Amateur Submasters,33-39,M,324.32,,174.63,,294.84,,793.79,SBD,Multi-ply,,1
Patrick Henry,,52,Amateur Teen 14-15,14-15,M,140.61,,47.63,,117.93,,306.18,SBD,Multi-ply,,1
Michael Martinez,,60,Amateur Teen 14-15,14-15,M,133.81,,95.25,,151.95,,381.02,SBD,Multi-ply,,1
Robert Baker,,67.5,Amateur Teen 14-15,14-15,M,185.97,,83.91,,195.04,199.58,464.93,SBD,Multi-ply,,1
Damian Polok,,75,Amateur Teen 14-15,14-15,M,117.93,,63.5,,158.76,,340.19,SBD,Multi-ply,,1
Josh Pierce,,100,Amateur Teen 14-15,14-15,M,170.1,,104.33,,226.8,,501.22,SBD,Multi-ply,,1
David Hierholzer,,75,Amateur Teen 18-19,18-19,M,231.33,,176.9,,244.94,,653.17,SBD,Multi-ply,,1
Nick Tsourounis,,110,Amateur Teen 16-17,16-17,M,238.14,,145.15,,240.4,,623.69,SBD,Multi-ply,,1
Matt Basiliko,,125,Amateur Teen 16-17,16-17,M,249.48,,136.08,,197.31,,582.87,SBD,Multi-ply,,1
Howard McKinsey,,82.5,Amateur Juniors,20-23,M,217.72,,113.4,,213.64,,544.77,SBD,Multi-ply,,1
Beau King,,110,Amateur Juniors,20-23,M,263.08,,188.24,,267.62,,718.94,SBD,Multi-ply,,1
Ralph Cirafesi,,110,Amateur Juniors,20-23,M,204.12,,111.13,,240.4,,555.65,SBD,Multi-ply,,2
Tom Doi,,60,Amateur Masters 50-54,50-54,M,149.69,,74.84,,165.56,,390.09,SBD,Multi-ply,,1
Greg Ruth,,75,Amateur Masters 40-44,40-44,M,210.92,,120.2,,190.51,,521.63,SBD,Multi-ply,,1
Henry Dudley,,75,Amateur Masters 55-59,55-59,M,124.74,,81.65,,147.42,,353.8,SBD,Multi-ply,,1
James Schmuck,,82.5,Amateur Masters 50-54,50-54,M,244.94,,124.74,,213.19,,582.87,SBD,Multi-ply,,1
Juan Collazo,,82.5,Amateur Masters 60-64,60-64,M,170.1,,127.01,,170.1,181.44,467.2,SBD,Multi-ply,,1
Jim McDowell,,90,Amateur Masters 40-44,40-44,M,288.03,,172.37,,290.3,,750.7,SBD,Multi-ply,,1
Gary Beck,,90,Amateur Masters 40-44,40-44,M,258.55,,156.49,,272.16,,687.19,SBD,Multi-ply,,2
R. Pful,,90,Amateur Masters 40-44,40-44,M,197.31,,106.59,,199.58,,503.49,SBD,Multi-ply,,3
Al Wurz,,90,Amateur Masters 65-69,65-69,M,170.1,,113.4,,190.51,,474,SBD,Multi-ply,,1
Ronald Krout,,100,Amateur Masters,40-999,M,274.42,,172.37,,249.48,,696.27,SBD,Multi-ply,,1
AJ Henderson,,100,Amateur Masters,40-999,M,283.5,,115.67,,274.42,,673.59,SBD,Multi-ply,,2
Art Penn,,110,Amateur Masters 40-44,40-44,M,276.69,,192.78,,226.8,,696.27,SBD,Multi-ply,,1
Paul Eberhardinger,,110,Amateur Masters 75-79,75-79,M,79.38,,45.36,,99.79,,224.53,SBD,Multi-ply,,1
Jay Bechtel,,125,Amateur Masters 40-44,40-44,M,265.35,,165.56,,249.48,,680.39,SBD,Multi-ply,,1
Billy Morgan,,125,Amateur Masters 45-49,45-49,M,142.88,,154.22,,204.12,,501.22,SBD,Multi-ply,,1
Richard Cerrrato,,140,Amateur Masters 55-59,55-59,M,290.3,,185.97,,254.01,,730.28,SBD,Multi-ply,,1
William Powell,,75,Police,,M,170.1,,108.86,,188.24,,467.2,SBD,Multi-ply,,1
AJ Henderson,,100,Police,,M,283.5,,115.67,,274.42,,673.59,SBD,Multi-ply,,1
Art Penn,,110,Police,,M,276.69,,192.78,,226.8,,696.27,SBD,Multi-ply,,1
Mark Dimiduk,,125,Police,,M,365.14,,190.51,,292.57,,848.22,SBD,Multi-ply,,1
Billy Morgan,,125,Police,,M,142.88,,154.22,,204.12,,501.22,SBD,Multi-ply,,2
Richard Cerrato,,140,Police,,M,290.3,,185.97,,254.01,,730.28,SBD,Multi-ply,,1
Anthony Phillips,,140+,Police,,M,276.69,,149.69,,181.44,,607.81,SBD,Multi-ply,,1
M. Anunon,,67.5,Pro Open,,M,158.76,,163.29,,217.72,,539.78,SBD,Multi-ply,,1
James McGlynn,,90,Pro Open,,M,331.12,,235.87,,331.12,,898.11,SBD,Multi-ply,,1
Tony Kamand,,90,Pro Open,,M,385.55,,192.78,,317.52,,895.85,SBD,Multi-ply,,2
J. Adams,,90,Pro Open,,M,308.44,,242.67,,276.69,,827.81,SBD,Multi-ply,,3
Matt Hawkins,97.52,100,Pro Open,,M,349.27,,195.04,,297.1,,841.41,SBD,Multi-ply,,1
Mike Hill,99.79,100,Pro Open,,M,326.59,,229.06,,285.76,,841.41,SBD,Multi-ply,,2
J. Black Jr,,100,Pro Open,,M,344.73,,147.42,,256.28,,748.43,SBD,Multi-ply,,3
Chris Young,,110,Pro Open,,M,353.8,,233.6,,319.78,,907.19,SBD,Multi-ply,,1
Gabe Reitter,,110,Pro Open,,M,349.27,,235.87,,301.64,,886.77,SBD,Multi-ply,,2
John Green,,110,Pro Open,,M,356.07,,185.97,,290.3,,832.34,SBD,Multi-ply,,3
John Rooney #1,,110,Pro Open,,M,335.66,,206.38,,226.8,,768.84,SBD,Multi-ply,,4
Dave Barno,,125,Pro Open,,M,419.57,,249.48,,362.87,,1031.92,SBD,Multi-ply,,1
Alex Klest,,125,Pro Open,,M,362.87,,238.14,,340.19,,941.21,SBD,Multi-ply,,2
John Bott,,125,Pro Open,,M,385.55,,229.06,,306.18,,920.79,SBD,Multi-ply,,3
Bob Youngs,,125,Pro Open,,M,365.14,,238.14,,303.91,,907.19,SBD,Multi-ply,,4
Mark Dimiduk,,125,Pro Open,,M,365.14,,190.51,,292.57,,848.22,SBD,Multi-ply,,5
Michael Ruggiero,,140,Pro Open,,M,369.68,,244.94,,353.8,,968.42,SBD,Multi-ply,,1
Allan Mehan,,140,Pro Open,,M,369.68,,222.26,,317.52,,909.45,SBD,Multi-ply,,2
Don Damron,,140,Pro Open,,M,340.19,,251.74,,283.5,,875.43,SBD,Multi-ply,,3
Steve Brodsky,,140+,Pro Open,,M,374.21,,219.99,,319.78,,913.99,SBD,Multi-ply,,1
Anthony Clark #1,,140+,Pro Open,,M,,,-365.14,,,,,B,Multi-ply,,DQ
Michael Ammon,,67.5,Pro Juniors,20-23,M,158.76,,163.29,,217.72,,539.78,SBD,Multi-ply,,1
Robert Fusner,,140,Pro Juniors,20-23,M,381.02,,276.69,,322.05,,979.76,SBD,Multi-ply,23,1
Alex Klest,,125,Pro Submasters,33-39,M,362.87,,238.14,,340.19,,941.21,SBD,Multi-ply,,1
JR Hunt,,140+,Pro Submasters,33-39,M,399.16,,278.96,,294.84,328.85,972.96,SBD,Multi-ply,,1
Paul Sacco,,75,Pro Masters 40-44,40-44,M,249.48,,167.83,172.37,233.6,,650.91,SBD,Multi-ply,,1
John Varrone,,82.5,Pro Masters 50-54,50-54,M,249.48,,120.2,,258.55,,628.23,SBD,Multi-ply,,1
Jeff Adams,,90,Pro Masters 40-44,40-44,M,308.44,,242.67,,276.69,,827.81,SBD,Multi-ply,,1
Len Mintus,,90,Pro Masters 45-49,45-49,M,260.82,,142.88,,238.14,,641.83,SBD,Multi-ply,,1
Mac Richards,,90,Pro Masters 75-79,75-79,M,199.58,,147.42,,204.12,,551.12,SBD,Multi-ply,,1
John Black,,100,Pro Masters 45-49,45-49,M,344.73,,147.42,,256.28,,748.43,SBD,Multi-ply,,1
Mark Dimiduk,,125,Pro Masters 40-44,40-44,M,365.14,,190.51,,292.57,,848.22,SBD,Multi-ply,,1
John Florio,,125,Pro Masters 45-49,45-49,M,381.02,,204.12,,299.37,,884.51,SBD,Multi-ply,,1
Steve Lindway,,140,Pro Masters 45-49,45-49,M,294.84,,68.04,,235.87,,598.74,SBD,Multi-ply,,1
