Name,Sex,Division,Event,BodyweightKg,WeightClassKg,Squat1Kg,Squat2Kg,Squat3Kg,Best3SquatKg,Bench1Kg,Bench2Kg,Bench3Kg,Bench4Kg,Best3BenchKg,Deadlift1Kg,Deadlift2Kg,Deadlift3Kg,Deadlift4Kg,Best3DeadliftKg,TotalKg,Country,Equipment,Place
Gunnar Runarsson,M,Masters 45-49,B,112,125,,,,,195,-212.5,212.5,,212.5,,,,,,212.5,Iceland,Single-ply,1
Kevin Maher,M,Masters 50-54,B,108,110,,,,,210,-222.5,222.5,,222.5,,,,,,222.5,USA,Single-ply,1
Tim Cochran,M,Masters 40-44,B,114.8,125,,,,,100,-217.5,-227.5,,100,,,,,,100,USA,Single-ply,1
Baldvin Skúlason,M,Masters 50-54,B,118,125,,,,,-200,200,232.5,,232.5,,,,,,232.5,Iceland,Single-ply,1
Alberto Suarez,M,Masters 55-59,B,120.7,125,,,,,-235,-235,-237.5,,,,,,,,,USA,Single-ply,DQ
Sadig Heydarov,M,Open,B,105.6,110,,,,,170,-235,-240,,170,,,,,,170,Azerbaijan,Single-ply,2
Greogory Lopatskiy,M,Open,B,125.7,140,,,,,-240,240,255,,255,,,,,,255,Russia,Single-ply,1
Duncan Tanner,M,Masters 45-49,B,134.4,140,,,,,232.5,242.5,255,,255,,,,,,255,UK,Single-ply,1
Ray Larkey,M,Masters 45-49,B,136.3,140,,,,,210,-227.5,-272.5,,210,,,,,,210,USA,Single-ply,2
Roman Poliakov,M,Open,B,171.2,140+,,,,,250,280,-290,,280,,,,,,280,Russia,Single-ply,1
Richard Fisher,M,Open,B,146.7,140+,,,,,-290,-290,-290,,,,,,,,,USA,Single-ply,DQ
Stanislav Poliakov,M,Open,B,124.9,125,,,,,-270,270,-300,,270,,,,,,270,Russia,Single-ply,2
Jim Potts,M,Masters 45-49,B,131.9,140,,,,,-322.5,-322.5,-322.5,,,,,,,,,USA,Single-ply,DQ
Nick Frankovitch,M,Open,B,126.8,140,,,,,252.5,-262.5,,,252.5,,,,,,252.5,USA,Single-ply,2
Victor Malyugin,M,Juniors 20-23,B,134.6,140,,,,,290,-305,,,290,,,,,,290,Russia,Single-ply,1
Rahif Suleymanov,M,Open,B,124.4,125,,,,,-150,,,,,,,,,,,Azerbaijan,Single-ply,DQ
Allen Baria,M,Open,B,124.6,125,,,,,387.5,-400,-400,,387.5,,,,,,387.5,USA,Single-ply,1
Duncan Tanner,M,Masters 40-44,SBD,134.1,140,180,190,202.5,202.5,150,155,160,,160,180,220,225,,225,587.5,UK,Single-ply,1
Gunnar Runarsson,M,Masters 45-49,SBD,113.1,125,150,200,-250,200,200,215,227.5,,227.5,220,255,-300,,255,682.5,Iceland,Single-ply,2
Stanislav Poliakov,M,Juniors 20-23,SBD,125.3,140,320,340,-355,340,275,290,-300,,290,260,280,300,,300,930,Russia,Single-ply,2
Andrew Cairney,M,Open,SBD,132.1,140,310,320,-330,320,230,-240,-240,,230,280,310,320,,320,870,UK,Single-ply,1
Peter Bongers,M,Masters 45-49,SBD,111.2,125,300,325,,325,-175,185,-190,,185,270,285,,,285,795,Netherlands,Single-ply,1
Victor Malyugin,M,Juniors 20-23,SBD,134.7,140,360,-402.5,,360,290,305,315,,315,290,315,,,315,990,Russia,Single-ply,1
Fred Goldberg II,M,Open,SBD,117.4,125,-242.5,242.5,260,260,-285,-285,-285,,,-245,,,,,,USA,Single-ply,DQ
Lance Karabel,M,Open,SBD,151,140+,420,437.5,455,455,-277.5,-277.5,-277.5,,,-325,,,,,,USA,Single-ply,DQ
Shahid Shabazz,M,Masters 40-44,SBD,97.8,100,-245,245,-255,245,175,-235,-255,,175,227.5,-250,-250,,227.5,647.5,USA,Single-ply,2
Alexander Cordova,M,Open,SBD,99.1,100,250,262.5,-270,262.5,200,207.5,212.5,,212.5,255,272.5,-282.5,,272.5,747.5,USA,Single-ply,1
Oleg Gevko,M,Juniors 20-23,SBD,106,110,280,310,325,325,170,-190,190,,190,260,-275,,,260,775,Russia,Single-ply,1
Andrev Sizov,M,Masters 40-44,SBD,92,100,280,300,310,310,200,210,-220,,210,270,300,320,,320,840,Russia,Single-ply,1
Alexander Mittag,M,Open,SBD,109.2,110,-330,-330,-330,,-170,,,,,-270,,,,,,Germany,Single-ply,DQ
Zak Kroeger,M,Open,SBD,108.9,110,315,-327.5,-327.5,315,-235,235,245,,245,275,297.5,-320,,297.5,857.5,USA,Single-ply,2
Eloy Ramos,M,Open,SBD,98.8,100,-340,-340,-340,,-210,,,,,-280,,,,,,Mexico,Single-ply,DQ
Dave Smiley,M,Masters 40-44,SBD,108.5,110,300,322,-332.5,322,237.5,-247.5,-247.5,,237.5,-295,-295,-295,,,,USA,Single-ply,DQ
Scott Smith,M,Open,SBD,110,110,365,385,392.5,392.5,277.5,-287.5,,,277.5,300,320,330,,330,1000,USA,Single-ply,1
Olga Vlasova,F,Open,B,48,48,,,,,25,30,-35,,30,,,,,,30,Russia,Single-ply,1
Enrique Casteneda,M,Masters 65-69,B,74.1,75,,,,,80,87.5,92.5,,92.5,,,,,,92.5,Mexico,Single-ply,1
Boyd Huneycutt,M,Masters 50-54,B,52.9,56,,,,,102.5,-107.5,-107.5,,102.5,,,,,,102.5,USA,Single-ply,1
Sergey Bakanov,M,Open,B,48.4,56,,,,,100,110,-122.5,,110,,,,,,110,Russia,Single-ply,1
Gurnaik Birring,M,Juniors 20-23,B,66.6,67.5,,,,,-145,145,-155,,145,,,,,,145,UK,Single-ply,1
Dirk Schumann,M,Masters 40-44,B,73.7,75,,,,,145,-155,155,,155,,,,,,155,Germany,Single-ply,2
Mari Asp,F,Open,B,62,67.5,,,,,145,152.5,-160,,152.5,,,,,,152.5,USA,Single-ply,1
Vladimir Lapynin,M,Masters 40-44,B,74.5,75,,,,,170,180,-190,,180,,,,,,180,Russia,Single-ply,1
Robert Truscott,M,Open,B,72.6,75,,,,,-210,-220,-220,,,,,,,,,UK,Single-ply,DQ
Maria Uribe,F,Masters 60-64,B,82.5,82.5,,,,,60,70,-72.5,,70,,,,,,70,Mexico,Single-ply,1
Kirsten Schwade,F,Masters 55-59,B,89.9,90,,,,,85,-92.5,-92.5,,85,,,,,,85,Germany,Single-ply,1
Dawn Morrell,F,Masters 50-54,B,73.2,75,,,,,87.5,-95,-95,,87.5,,,,,,87.5,UK,Single-ply,1
Leon Ramsey,M,Masters 50-54,B,80.6,82.5,,,,,110,142.5,-150,,142.5,,,,,,142.5,USA,Single-ply,1
Joe Somma,M,Masters 45-49,B,81.6,82.5,,,,,172.5,185,-192.5,,185,,,,,,185,USA,Single-ply,1
Mosbeh Elkaney,M,Masters 40-44,B,82.5,82.5,,,,,-230,-230,230,,230,,,,,,230,Egypt,Single-ply,1
Dennis McLaughlin,M,Open,B,81.6,82.5,,,,,-247.5,-247.5,-252.5,,,,,,,,,USA,Single-ply,DQ
Derrick Mirikitami,M,Open,B,81.9,82.5,,,,,152.5,-160,,,152.5,,,,,,152.5,USA,Single-ply,2
Arram Eghoyan,M,Open,B,81.5,82.5,,,,,160,165,,,165,,,,,,165,UK,Single-ply,1
Mario Purkarthofer,M,Open,B,90,90,,,,,130,142.5,-150,,142.5,,,,,,142.5,Austria,Single-ply,4
Thomas Piffl,M,Open,B,86.2,90,,,,,135,145,150,,150,,,,,,150,Austria,Single-ply,3
Reinhold Schaumann-Kelch,M,Masters 60-64,B,88.1,90,,,,,140,150,-152.5,,150,,,,,,150,Germany,Single-ply,1
Phil Benniston,M,Masters 45-49,B,86.6,90,,,,,160,170,175,,175,,,,,,175,UK,Single-ply,1
Valery Poryadin,M,Masters 45-49,B,89.2,90,,,,,160,-170,-175,,160,,,,,,160,Russia,Single-ply,2
Sadig Heydarov,M,Open,B,105.3,110,,,,,-180,-180,-180,,,,,,,,,Azerbaijan,Single-ply,DQ
Zak Miller,M,Open,B,88.3,90,,,,,200,207.5,-220,,207.5,,,,,,207.5,USA,Single-ply,2
Eloy Ramos,M,Open,B,100.8,110,,,,,210,-220,-220,,210,,,,,,210,Mexico,Single-ply,1
Ilya Gorchakov,M,Open,B,97.5,100,,,,,-270,-270,270,,270,,,,,,270,Russia,Single-ply,2
James Phraner,M,Open,B,99.4,100,,,,,270,285,-307.5,,285,,,,,,285,USA,Single-ply,1
Alexander Belousov,M,Open,B,90,90,,,,,220,-237.5,,,220,,,,,,220,Russia,Single-ply,1
Hicham Bouchantouf,M,Juniors 20-23,D,59.9,60,,,,,,,,,,180,200,220,-240,220,220,Germany,Single-ply,1
Enrique Casteneda,M,Masters 65-69,D,74.1,75,,,,,,,,,,110,120,130,,130,130,Mexico,Single-ply,1
Nicholas Rodriguez,M,Open,D,65.4,67.5,,,,,,,,,,202.5,212.5,-215,,212.5,212.5,USA,Single-ply,1
Justin Oon,M,Open,D,86.5,90,,,,,,,,,,190,-220,-220,,190,190,UK,Single-ply,2
Valery Poryadin,M,Masters 45-49,D,89.2,90,,,,,,,,,,190,215,-225,,215,215,Russia,Single-ply,2
Jan Vocklemann,M,Teen 15-19,D,87.2,90,,,,,,,,,,180,200,230,,230,230,Germany,Single-ply,1
Vladimir Lapynin,M,Masters 40-44,D,74.5,75,,,,,,,,,,200,220,-240,,220,220,Russia,Single-ply,1
Jordan Perretz,M,Open,D,73.6,75,,,,,,,,,,235,-242.5,-245,,235,235,USA,Single-ply,1
Peter Malfa,M,Masters 45-49,D,99.2,100,,,,,,,,,,230,250,260,,260,260,Germany,Single-ply,1
Arram Eghoyan,M,Open,D,81.5,82.5,,,,,,,,,,230,250,-267.5,,250,250,UK,Single-ply,1
Warren Fahrenfeld,M,Masters 40-44,D,82.6,90,,,,,,,,,,267.5,275,280,,280,280,USA,Single-ply,1
Paul Murphy,M,Masters 40-44,D,87.6,90,,,,,,,,,,240,267.5,-282.5,,267.5,267.5,UK,Single-ply,2
Alexander Belousov,M,Open,D,90,90,,,,,,,,,,250,280,-312.5,,280,280,Russia,Single-ply,1
Andrey Sisov,M,Masters 40-44,D,94.1,100,,,,,,,,,,300,315,325,,325,325,Russia,Single-ply,1
Phil Benniston,M,Masters 45-49,D,86.6,90,,,,,,,,,,200,225,,,225,225,UK,Single-ply,1
Derrick Mirikitami,M,Open,D,81.9,82.5,,,,,,,,,,230,-245,,,230,230,USA,Single-ply,2
Oliver Roth,M,Open,D,104.6,110,,,,,,,,,,170,195,-212.5,,195,195,Germany,Single-ply,3
Tim Cochran,M,Masters 40-44,D,114.8,125,,,,,,,,,,227.5,-245,-245,,227.5,227.5,USA,Single-ply,1
Gunnar Runarsson,M,Masters 45-49,D,112,125,,,,,,,,,,220,260,275,,275,275,Iceland,Single-ply,1
Rahif Suleymanov,M,Open,D,124.5,125,,,,,,,,,,200,260,290,,290,290,Azerbaijan,Single-ply,1
Alexander Mittag,M,Open,D,108,110,,,,,,,,,,240,275,300,,300,300,Germany,Single-ply,2
Andrew Cairney,M,Open,D,131.9,140,,,,,,,,,,290,-325,325,,325,325,UK,Single-ply,1
Bakhtiyar Guliyev,M,Open,D,104.9,110,,,,,,,,,,-325,-325,330,,330,330,Azerbaijan,Single-ply,1
Vugar Namazov,M,Open,D,144.4,140+,,,,,,,,,,350,370,402.5,,402.5,402.5,Azerbaijan,Single-ply,1
Dawn Morrell,F,Masters 50-54,D,73.3,75,,,,,,,,,,155,162.5,167.5,170,167.5,167.5,UK,Single-ply,1
Maria Uribe,F,Masters 60-64,D,81.9,82.5,,,,,,,,,,80,90,100,,100,100,Mexico,Single-ply,1
Melissa Tank,F,Teen 13-14,D,94.5,90+,,,,,,,,,,125,140,-155,,140,140,Germany,Single-ply,1
Onukwurunwa Gerald Chidi,M,Open,SBD,85,90,160,180,-200,180,90,110,-120,,110,120,140,160,,160,450,,Single-ply,4
Paul Murphy,M,Masters 40-44,SBD,88.2,90,260,-290,-290,260,160,167.5,-172.5,,167.5,225,250,260,,260,687.5,,Single-ply,1
Matt Levine,M,Open,SBD,88.7,90,277.5,290,-297.5,290,175,-187.5,-187.5,,175,235,250,260,,260,725,,Single-ply,2
Jacob Carillo,M,Open,SBD,89.5,90,-250,-250,260,260,150,-160,170,,170,250,260,-270,,260,690,,Single-ply,3
Alexander Belousov,M,Open,SBD,83.6,90,270,290,300,300,210,-220,220,,220,260,270,280,,280,800,,Single-ply,1
Victor Gomez,M,Masters 50-54,SBD,89.3,90,280,300,,300,170,190,-200,,190,250,275,-292.5,,275,765,,Single-ply,1
Guoido Nieland,M,Masters 40-44,SBD,86.8,90,205,-220,-225,205,120,130,132.5,,132.5,210,220,,,220,557.5,,Single-ply,2
Prince Kennedy Nwampka,M,Masters 45-49,SBD,82.3,82.5,160,180,200,200,60,70,80,,80,160,180,200,,200,480,,Single-ply,3
Mario Hernandez,M,Masters 40-44,SBD,80.5,82.5,-200,-200,210,210,-140,-140,140,,140,180,200,210,,210,560,,Single-ply,1
Sergio Lopez,M,Open,SBD,81.9,82.5,-250,260,-285,260,175,-195,195,,195,200,235,-245,,235,690,,Single-ply,3
Tim O'Brien #1,M,Masters 45-49,SBD,79.6,82.5,202.5,215,-222.5,215,145,-157.5,-157.5,,145,202.5,215,-225,,215,575,,Single-ply,2
Justin Oon,M,Open,SBD,80.3,82.5,140,160,-185,160,130,-145,150,,150,-210,210,-225,,210,520,,Single-ply,5
Phil Benniston,M,Masters 45-49,SBD,80.9,82.5,225,250,-260,250,160,172.5,-180,,172.5,230,250,-257.5,,250,672.5,,Single-ply,1
Arram Eghoyan,M,Open,SBD,81,82.5,230,250,-275,250,160,170,-180,,170,230,260,-272.5,,260,680,,Single-ply,4
Coert Hoppenbrouwers,M,Masters 50-54,SBD,82.2,82.5,210,230,-250,230,140,150,-160,,150,230,250,,,250,630,,Single-ply,2
Bob Benedix,M,Masters 50-54,SBD,80.1,82.5,277.5,290,-300,290,125,-142.5,142.5,,142.5,235,250,257.5,,257.5,690,,Single-ply,1
Derrick Mirikitami,M,Open,SBD,80.1,82.5,275,290,-297.5,290,152.5,160,-170,,160,240,-255,255,,255,705,,Single-ply,2
Stanislav Pryakhin,M,Open,SBD,81.8,82.5,-280,-290,290,290,-190,190,-210,,190,250,-285,-285,,250,730,,Single-ply,1
Maria Uribe,F,Masters 60-64,SBD,81.3,82.5,-60,-60,60,60,60,70,-72.5,,70,80,90,97.5,,97.5,227.5,,Single-ply,1
Pamela Paul,F,Open,SBD,115.7,90+,137.5,-142.5,142.5,142.5,-102.5,102.5,-110,,102.5,-160,160,-165,,160,405,,Single-ply,1
Dirk Schumann,M,Masters 40-44,SBD,75,75,-200,200,-215,200,145,152.5,-157.5,,152.5,190,200,210,,210,562.5,,Single-ply,1
Oberre Chinedu Emmanuel,M,Open,SBD,74.9,75,200,-225,225,225,110,-120,120,,120,180,200,-220,,200,545,,Single-ply,2
Gabriel Carillo,M,Teen 15-19,SBD,72.4,75,-210,210,-225,210,-100,100,-115,,100,185,205,-230,,205,515,,Single-ply,2
Samuel Rodriguez,M,Open,SBD,74,75,200,-215,-225,200,120,135,145,,145,210,220,240,,240,585,,Single-ply,1
Marco Gallindo,M,Teen 15-19,SBD,75,75,-185,185,,185,122.5,-125,125,,125,245,-250,-250,,245,555,,Single-ply,1
Enrique Castenada,M,Masters 65-69,SBD,73.3,75,100,105,110,110,80,87.5,90,,90,115,125,,,125,325,,Single-ply,1
Kári Elíson,M,Masters 60-64,SBD,73,75,220,-232.5,,220,150,,,,150,245,260,,,260,630,,Single-ply,1
Vladimir Lapynin,M,Masters 40-44,SBD,74,75,-220,-220,-220,,,,,,,,,,,,,,Single-ply,DQ
Dawn Morrell,F,Masters 50-54,SBD,72.6,75,-125,-125,-125,,,,,,,,,,,,,,Single-ply,DQ
Sergey Bakanov,M,Open,SBD,47.5,56,130,160,-165,160,-110,-110,110,,110,60,85,92.5,,92.5,362.5,,Single-ply,1
Haidi Chaparro,F,Open,SBD,50.5,52,110,-120,-120,110,40,45,-50,,45,110,-120,120,,120,275,,Single-ply,1
Martha Rodriguez,F,Open,SBD,59.1,60,120,130,-135,130,60,-77.5,-80,,60,120,-130,130,,130,320,,Single-ply,2
Steve Soukup,M,Masters 50-54,SBD,55.7,56,125,140,147.5,147.5,-92.5,92.5,102.5,,102.5,125,140,147.5,,147.5,397.5,,Single-ply,1
Jake Benedix,M,Teen 15-19,SBD,58.7,60,157.5,-170,-170,157.5,100,105,-107.5,,105,155,162.5,-170,,162.5,425,,Single-ply,1
Brenda Aguirre,F,Open,SBD,59.4,60,150,165,-175,165,75,82.5,90,,90,165,175,182.5,,182.5,437.5,,Single-ply,1
Gordon Santee,M,Masters 65-69,SBD,64.5,67.5,90,105,115,115,85,92.5,97.5,,97.5,170,185,190,195,190,402.5,,Single-ply,1
Ellen Stein,F,Masters 55-59,SBD,59.3,60,157.5,167.5,-177.5,167.5,77.5,82.5,87.5,90,87.5,170,180,-190,,180,435,,Single-ply,1
Brett Benedix,M,Teen 15-19,SBD,66.8,67.5,197.5,-210,210,210,87.5,95,-100,,95,182.5,197.5,-205,,197.5,502.5,,Single-ply,1
Ugorji Franklin Uchenna,M,Open,SBD,62.4,67.5,-120,-120,140,140,-110,-110,-110,,,,,,,,,,Single-ply,DQ
Rúnar Geirmundsson,M,Juniors 20-23,SBD,67.3,67.5,-170,-170,-170,,,,,,,,,,,,,,Single-ply,DQ
