Place,Name,Sex,BirthDate,State,Equipment,Division,BodyweightKg,WeightClassKg,Squat1Kg,Squat2Kg,Squat3Kg,Best3SquatKg,Bench1Kg,Bench2Kg,Bench3Kg,Best3BenchKg,Deadlift1Kg,Deadlift2Kg,Deadlift3Kg,Best3DeadliftKg,TotalKg,Event
1,Julianna Sanchez,F,1994-12-15,CA,Raw,FR-O,51.9,52,97.5,105,-107.5,105,-52.5,57.5,-60,57.5,107.5,115,122.5,122.5,285,SBD
DQ,Shannon Lucero,F,2006-09-22,CA,Raw,FR-Y3,49.4,52,62.5,-65,65,65,-37.5,-37.5,-37.5,,82.5,87.5,92.5,92.5,,SBD
1,Cheri Chase,F,1952-08-01,CA,Raw,FR-M3b,55.05,57,62.5,-65,67.5,67.5,40,-42.5,42.5,42.5,87.5,95,100,100,210,SBD
1,Maria Areli Pina,F,1985-12-26,CA,Raw,FR-O,55.25,57,-112.5,-115,115,115,50,52.5,55,55,130,140,-145,140,310,SBD
2,Alexandria Wong,F,1994-01-01,CA,Raw,FR-O,55.55,57,85,87.5,90,90,-57.5,60,62.5,62.5,112.5,120,127.5,127.5,280,SBD
1,Haley Hunter,F,2001-10-23,CA,Raw,FR-T2,60.65,63,102.5,110,-117.5,110,45,-52.5,55,55,112.5,120,127.5,127.5,292.5,SBD
NS,Laura Pedrozo,F,1995-06-07,CA,Raw,FR-Jr,,,,,,,,,,,,,,,,SBD
NS,Michelle Kempner,F,1977-09-23,CA,Raw,FR-M1a,,,,,,,,,,,,,,,,SBD
DQ,Janine Brown,F,1995-05-16,CA,Raw,FR-Jr,71.55,72,-115,-120,-120,,47.5,55,-57.5,55,100,127.5,145,145,,SBD
1,Bianca Martinez,F,1992-03-06,CA,Raw,FR-O,68.65,72,-100,102.5,105,105,65,-67.5,72.5,72.5,130,135,137.5,137.5,315,SBD
2,Candi Sweet,F,1980-10-28,CA,Raw,FR-O,70.2,72,97.5,102.5,105,105,60,62.5,-65,62.5,137.5,142.5,147.5,147.5,315,SBD
3,Samantha Everett,F,1993-01-25,CA,Raw,FR-O,66,72,-102.5,102.5,110,110,50,52.5,-55,52.5,130,140,145,145,307.5,SBD
4,Kate Vinton,F,1991-03-09,CA,Raw,FR-O,68.3,72,87.5,92.5,-95,92.5,45,47.5,-50,47.5,100,105,110,110,250,SBD
1,Mariah Muniz,F,1991-09-07,CA,Raw,FR-O,145.05,84+,90,-97.5,-100,90,45,-50,-50,45,110,115,125,125,260,SBD
1,Meghan Lake,F,1992-05-02,CA,Raw,FR-O,66.65,72,,,,,65,70,-75,70,107.5,112.5,117.5,117.5,187.5,BD
1,Letitia Andrade-Horne,F,1968-06-13,CA,Raw,FR-M2a,127.1,84+,,,,,,,,,95,100,105,105,105,D
1,Michael Mckenny,M,1998-05-27,CA,Raw,MR-Jr,64.85,66,160,170,-177.5,170,105,-110,-110,105,172.5,182.5,-192.5,182.5,457.5,SBD
2,Ryan Robin Guevarra,M,1998-02-07,CA,Raw,MR-Jr,63.55,66,102.5,110,120,120,82.5,87.5,92.5,92.5,142.5,160,170,170,382.5,SBD
NS,Dennis Tito,M,1940-08-08,CA,Raw,MR-M4b,,,,,,,,,,,,,,,,SBD
1,Anand Jobanputra,M,1989-12-16,CA,Raw,MR-O,73.65,74,145,155,162.5,162.5,85,92.5,-97.5,92.5,180,190,-197.5,190,445,SBD
1,Quinn Rodriguez,M,2000-04-19,CA,Raw,MR-T3,67.9,74,-140,-145,145,145,-115,115,-120,115,-175,175,182.5,182.5,442.5,SBD
1,Brandon Her,M,1995-11-26,CA,Raw,MR-Jr,82.25,83,182.5,192.5,-197.5,192.5,115,-125,-125,115,195,202.5,207.5,207.5,515,SBD
2,Nicholas Lorio,M,1997-09-19,CA,Raw,MR-Jr,82.3,83,165,175,182.5,182.5,102.5,-107.5,107.5,107.5,165,175,185,185,475,SBD
1,Brandon Her,M,1995-11-26,CA,Raw,MR-O,82.25,83,182.5,192.5,-197.5,192.5,115,-125,-125,115,195,202.5,207.5,207.5,515,SBD
NS,Alvin Presto,M,1984-09-03,CA,Raw,MR-M5a,,,,,,,,,,,,,,,,SBD
1,David Eisman,M,1999-12-06,NY,Raw,MR-T3,81.8,83,-167.5,177.5,-190,177.5,105,110,-117.5,110,-227.5,227.5,-240,227.5,515,SBD
NS,Rhys Spierkel,M,1996-12-10,CA,Raw,MR-Jr,,,,,,,,,,,,,,,,SBD
DD,Deric Wanland,M,1995-09-10,CO,Raw,MR-Jr,92.8,93,222.5,235,-242.5,235,145,150,155,155,262.5,275,285,285,,SBD
1,Evan Gilstrap,M,1980-11-15,CA,Raw,MR-O,89.1,93,160,167.5,175,175,105,112.5,117.5,117.5,-185,195,205,205,497.5,SBD
2,Jason Goodman,M,1990-01-11,CA,Raw,MR-O,92.7,93,157.5,167.5,172.5,172.5,100,105,110,110,155,165,175,175,457.5,SBD
DQ,Nicholas Okholm,M,1997-10-16,CA,Raw,MR-O,91.35,93,-190,200,212.5,212.5,,,,,237.5,245,247.5,247.5,,SBD
1,Gregory Nolen,M,1963-11-14,CA,Raw,MR-M2b,102.8,105,190,197.5,200,200,127.5,-137.5,-137.5,127.5,200,210,215,215,542.5,SBD
2,Dan Hyman,M,1963-02-27,CA,Raw,MR-M2b,102.1,105,190,205,215,215,100,107.5,-110,107.5,190,205,210,210,532.5,SBD
1,Matthew Bickford,M,1990-02-28,CA,Raw,MR-O,102.25,105,250,262.5,275,275,145,152.5,-155,152.5,270,287.5,-297.5,287.5,715,SBD
2,Daniel del Valle,M,1995-09-29,CA,Raw,MR-O,102.95,105,205,212.5,220,220,135,145,152.5,152.5,205,217.5,227.5,227.5,600,SBD
3,Eric Carver,M,1990-10-07,CA,Raw,MR-O,98.5,105,200,210,220,220,110,117.5,122.5,122.5,225,237.5,245,245,587.5,SBD
4,Alan Kapuaala,M,1987-04-14,CA,Raw,MR-O,103.6,105,190,195,205,205,125,127.5,130,130,202.5,210,220,220,555,SBD
5,Daniel Kerkotchian,M,1995-02-10,CA,Raw,MR-O,93.55,105,-155,157.5,162.5,162.5,-87.5,90,-95,90,180,182.5,185,185,437.5,SBD
1,Jon David De Ocampo,M,1991-06-21,CA,Raw,MR-O,114.9,120,170,200,220,220,120,130,140,140,180,200,220,220,580,SBD
DQ,John Napoletano,M,1992-05-17,CA,Raw,MR-O,118.55,120,212.5,217.5,-220,217.5,-130,-130,-130,,-252.5,252.5,-257.5,252.5,,SBD
1,Tyler Lucas,M,2001-04-18,CA,Raw,MR-T3,115.85,120,185,187.5,192.5,192.5,122.5,127.5,145,145,185,187.5,195,195,532.5,SBD
1,Jose Seneris,M,1989-04-21,CA,Raw,MR-O,100.5,105,,,,,82.5,90,97.5,97.5,,,,,97.5,B
1,Paul Faria,M,1987-11-30,CA,Raw,MR-O,107.3,120,,,,,,,,,185,195,205,205,205,D
